# 3ds Max Wavefront OBJ Exporter v0.97b - (c)2007 guruware
# 创建的文件:06.03.2022 17:44:09

#
# object 对象001
#

v  -12.7334 51.9321 -5.5888
v  -10.6968 51.9028 -5.1846
v  -10.3933 52.4235 -5.5888
v  -11.1372 50.6703 -5.5888
v  -9.2644 51.8223 -4.6058
v  -8.0385 52.7512 -5.5888
v  -9.8417 49.6196 -5.5888
v  -12.2413 47.7817 -5.5888
v  -11.1556 47.8969 -5.3544
v  -11.3068 48.4952 -5.5888
v  -11.1832 47.6846 -5.5888
v  -10.4823 47.9659 -5.0768
v  -10.1732 49.2498 -5.5888
v  -10.2545 47.4859 -5.5888
v  -10.6968 51.9028 -5.9930
v  -9.2644 51.8223 -6.5718
v  -11.1556 47.8969 -5.8232
v  -10.4823 47.9659 -6.1009
v  -8.0285 56.8102 -5.5888
v  -7.6667 56.2810 -5.2545
v  -7.3840 56.5231 -5.5888
v  -7.9487 55.9059 -5.5888
v  -7.0861 56.1670 -5.5888
v  -7.5027 56.0398 -5.2538
v  -7.5477 56.1064 -5.5888
v  -7.6627 55.4445 -5.5888
v  -7.6667 56.2810 -5.9231
v  -7.5027 56.0398 -5.9238
v  -5.9239 49.9748 -6.1163
v  -5.9508 51.4523 -6.5779
v  -4.6349 51.1026 -6.6397
v  -5.0043 49.2910 -6.1391
v  -5.9239 49.9748 -5.5888
v  -5.0043 49.2910 -5.5888
v  -2.5677 47.9500 -5.5888
v  -2.5677 47.9500 -6.1774
v  -1.9403 49.2133 -6.1854
v  -1.9403 49.2133 -5.5888
v  -4.3291 53.3136 -5.5888
v  -3.9778 52.8330 -6.1854
v  -4.3425 52.0245 -6.1688
v  -4.8785 52.3525 -5.5888
v  -5.9508 51.4523 -5.5888
v  -4.0847 48.6072 -6.1569
v  -3.3856 50.2998 -6.1738
v  -2.7559 49.6303 -6.6843
v  -3.2713 48.3138 -6.1694
v  -4.0847 48.6072 -5.5888
v  -3.2713 48.3138 -5.5888
v  -1.9164 50.8906 -5.5888
v  -2.1024 50.7317 -6.1901
v  -5.8764 52.1895 -6.1296
v  -5.8764 52.1895 -5.5888
v  -5.9239 49.9748 -5.0614
v  -5.0043 49.2910 -5.0386
v  -4.6349 51.1026 -4.5379
v  -5.9508 51.4523 -4.5998
v  -1.9403 49.2133 -4.9922
v  -2.5677 47.9500 -5.0002
v  -4.3425 52.0245 -5.0089
v  -3.9778 52.8330 -4.9923
v  -4.0847 48.6072 -5.0207
v  -3.2713 48.3138 -5.0082
v  -2.7559 49.6303 -4.4934
v  -3.3856 50.2998 -5.0039
v  -2.1024 50.7317 -4.9876
v  -5.8764 52.1895 -5.0480
v  -6.9035 49.9397 -5.3251
v  -5.9034 49.0433 -5.1288
v  -5.6521 49.6956 -5.1214
v  -6.8040 50.7613 -5.3221
v  -6.9685 49.9455 -5.5888
v  -5.9164 49.0095 -5.5888
v  -4.7933 48.3271 -5.5888
v  -4.3781 48.5563 -5.5888
v  -4.5054 48.5970 -5.2908
v  -4.8322 48.3998 -5.2947
v  -5.6409 49.7246 -5.5888
v  -6.8928 50.9202 -5.5888
v  -6.9035 49.9397 -5.8526
v  -6.8040 50.7613 -5.8555
v  -5.6521 49.6956 -6.0562
v  -5.9034 49.0433 -6.0488
v  -4.8322 48.3998 -5.8829
v  -4.5054 48.5970 -5.8868
v  -8.5311 48.7488 -5.3112
v  -7.8083 48.0873 -5.1785
v  -6.9842 49.0440 -5.1522
v  -7.2988 49.2419 -5.2807
v  -8.6453 48.7620 -5.5888
v  -7.8519 48.0357 -5.5888
v  -6.4562 47.8925 -5.5888
v  -6.6754 48.8651 -5.5888
v  -6.7366 48.8427 -5.2683
v  -6.5370 47.9568 -5.2643
v  -6.9510 49.0809 -5.5888
v  -7.3058 49.3001 -5.5888
v  -8.5311 48.7488 -5.8664
v  -7.2988 49.2419 -5.8969
v  -6.9842 49.0440 -6.0254
v  -7.8083 48.0873 -5.9991
v  -6.5370 47.9568 -5.9133
v  -6.7366 48.8427 -5.9093
v  -5.2897 47.8600 -5.9109
v  -5.1387 47.6905 -5.5888
v  -5.6882 47.6639 -5.5888
v  -5.0532 48.1229 -5.5888
v  -5.5997 48.3756 -5.5888
v  -5.2897 47.8600 -5.2667
v  -9.5897 43.0004 -5.5888
v  -8.9634 45.1589 -6.3281
v  -8.1285 46.6919 -6.3814
v  -7.8195 45.3745 -5.9258
v  -7.3326 44.0252 -5.5888
v  -7.3326 44.0252 -5.7232
v  -3.0721 41.8944 -5.5888
v  -3.0721 41.8944 -5.7284
v  -3.0589 45.4684 -5.9748
v  -2.0707 45.9336 -5.5888
v  -3.9984 46.4822 -6.5860
v  -3.5421 47.5413 -5.5888
v  -8.4056 47.1203 -5.5888
v  -9.3036 45.3217 -5.5888
v  -8.2045 43.0804 -5.5888
v  -8.2045 43.0804 -5.7153
v  -10.9167 40.6751 -5.5888
v  -6.4184 46.5795 -5.5888
v  -7.1312 45.2396 -6.4494
v  -5.0410 46.9597 -5.5888
v  -3.8700 44.1976 -5.8481
v  -6.0467 43.3352 -5.7086
v  -5.4338 42.8912 -5.5888
v  -5.4338 42.8912 -5.6854
v  -6.3836 42.8863 -5.5888
v  -6.3002 42.9576 -5.7259
v  -6.0173 42.6797 -5.7017
v  -6.1007 42.6084 -5.5888
v  -6.0467 43.3352 -5.5888
v  -5.3370 39.6379 -6.0994
v  -4.7418 39.8005 -5.5888
v  -6.1801 37.4273 -5.5888
v  -5.2183 39.9328 -5.5888
v  -5.9131 40.8372 -5.5888
v  -7.8195 45.3745 -5.2518
v  -8.1285 46.6919 -4.7962
v  -8.9634 45.1589 -4.8495
v  -7.3326 44.0252 -5.4544
v  -3.0589 45.4684 -5.2028
v  -3.0721 41.8944 -5.4492
v  -3.9984 46.4822 -4.5917
v  -8.2045 43.0804 -5.4623
v  -7.1312 45.2396 -4.7282
v  -6.0467 43.3352 -5.4690
v  -3.8700 44.1976 -5.3296
v  -5.4338 42.8912 -5.4923
v  -6.0173 42.6797 -5.4759
v  -6.3002 42.9576 -5.4517
v  -5.3370 39.6379 -5.0783
v  -2.0211 6.7107 -4.7412
v  -1.0480 7.7214 -4.6825
v  -1.2724 9.9737 -4.5256
v  -2.7353 8.9243 -4.6071
v  0.1491 7.7440 -4.6812
v  -0.3004 9.3370 -4.5774
v  1.0207 10.4158 -4.4843
v  -2.0219 6.3337 -5.5888
v  -0.9344 7.5389 -5.5888
v  0.0429 7.5446 -5.5888
v  0.5954 6.9264 -5.5888
v  0.8251 7.1442 -4.7159
v  1.0137 3.7385 -5.5888
v  4.1623 7.3339 -5.5888
v  3.4120 6.9554 -4.7269
v  1.4366 4.7359 -4.9604
v  3.1293 10.6239 -5.5888
v  2.8668 9.2426 -4.5844
v  2.0274 10.1366 -5.5888
v  2.1290 9.1938 -4.5880
v  0.9209 10.9102 -5.5888
v  -0.3012 9.6185 -5.5888
v  -1.4796 10.7208 -5.5888
v  -2.3670 10.2356 -5.5888
v  -3.2699 10.1697 -5.5888
v  -2.8612 3.5324 -5.5888
v  -5.5034 6.4416 -4.6536
v  -6.0831 7.0788 -5.5888
v  1.4193 7.0785 -4.7197
v  -2.1672 6.7475 -5.0686
v  -2.8062 8.8650 -4.9655
v  -3.9493 8.6610 -4.9207
v  -3.1150 6.3202 -5.0459
v  -3.3078 9.8614 -5.5888
v  -3.9883 9.6603 -5.5888
v  -2.1706 6.3941 -5.5888
v  -2.6398 6.1509 -5.5888
v  -4.0527 8.6855 -4.6878
v  -4.6136 8.7019 -4.5141
v  -3.1516 6.2395 -4.7186
v  -5.1141 10.2475 -5.5888
v  -2.6758 6.0366 -5.5888
v  -2.0211 6.7107 -6.4364
v  -2.7353 8.9243 -6.5705
v  -1.2724 9.9737 -6.6521
v  -1.0480 7.7214 -6.4951
v  -0.3004 9.3370 -6.6002
v  0.1491 7.7440 -6.4965
v  1.0207 10.4158 -6.6933
v  0.8251 7.1442 -6.4617
v  1.4366 4.7359 -6.2172
v  3.4120 6.9554 -6.4508
v  2.8668 9.2426 -6.5932
v  2.1290 9.1938 -6.5896
v  -5.5034 6.4416 -6.5240
v  1.4193 7.0785 -6.4579
v  -2.1672 6.7475 -6.1090
v  -3.1150 6.3202 -6.1318
v  -3.9493 8.6610 -6.2570
v  -2.8062 8.8650 -6.2121
v  -4.0527 8.6855 -6.4898
v  -3.1516 6.2395 -6.4590
v  -4.6136 8.7019 -6.6635
v  -1.2353 41.1295 -4.4985
v  0.7378 41.1348 -4.4985
v  1.8965 43.3272 -4.4985
v  -2.1815 43.5171 -4.4985
v  1.0279 45.0074 -4.4985
v  -1.5228 45.0074 -4.4985
v  1.0544 49.6926 -4.4985
v  -1.4963 49.6926 -4.4985
v  -1.5509 40.6877 -5.5888
v  1.2749 40.6824 -5.5888
v  2.3486 43.1501 -5.5888
v  1.2382 45.1867 -5.5888
v  1.2665 49.8217 -5.5888
v  1.2949 51.0810 -5.5888
v  2.3045 52.9006 -5.5888
v  2.1370 52.9006 -4.4985
v  1.0809 51.4663 -4.4985
v  2.5212 55.5903 -5.5888
v  0.9232 54.7025 -5.5888
v  0.9677 54.5734 -5.1427
v  -3.2263 54.0229 -5.5888
v  -3.2190 52.8438 -5.5888
v  -2.9045 52.8438 -4.4985
v  -2.7798 53.9093 -4.4985
v  -1.9171 50.9327 -5.5888
v  -1.6755 49.6887 -5.5888
v  -1.4698 51.4663 -4.4985
v  -1.6884 45.1605 -5.5888
v  -3.1826 43.2420 -5.5888
v  2.2910 55.2362 -4.4985
v  1.0319 54.3869 -4.4985
v  -2.3582 54.3012 -5.5888
v  -1.1836 54.1291 -4.4985
v  -0.5722 54.3824 -4.4985
v  -0.3503 53.5051 -4.4985
v  -0.2447 52.8738 -4.1887
v  0.4830 52.8820 -4.4985
v  -1.0042 52.8652 -4.4985
v  -0.7300 52.3344 -4.4985
v  0.3881 52.3238 -4.4985
v  -0.6781 54.5393 -5.0894
v  -0.9174 56.9158 -5.3199
v  -1.2965 56.6556 -5.5888
v  -0.1278 57.1428 -5.3731
v  0.1175 57.2230 -5.5888
v  -1.3783 58.3381 -5.3265
v  -2.2928 59.2185 -5.1161
v  -2.3823 59.2190 -5.5888
v  -1.9817 58.5356 -5.5888
v  -0.4716 58.4745 -5.3798
v  -0.0241 59.5069 -5.1694
v  -0.1006 58.6903 -5.5888
v  -0.0686 59.5074 -5.5888
v  -1.2353 41.1295 -6.6791
v  -2.1815 43.5171 -6.6791
v  1.8965 43.3272 -6.6791
v  0.7378 41.1348 -6.6791
v  -1.5228 45.0074 -6.6791
v  1.0279 45.0074 -6.6791
v  -1.4963 49.6926 -6.6791
v  1.0544 49.6926 -6.6791
v  1.0809 51.4663 -6.6791
v  2.1370 52.9006 -6.6791
v  0.9677 54.5734 -6.0349
v  -2.7798 53.9093 -6.6791
v  -2.9045 52.8438 -6.6791
v  -1.4698 51.4663 -6.6791
v  1.0319 54.3869 -6.6791
v  2.2910 55.2362 -6.6791
v  -1.1836 54.1291 -6.6791
v  -0.3503 53.5051 -6.6791
v  -0.5722 54.3824 -6.6791
v  0.4830 52.8820 -6.6791
v  -0.2447 52.8738 -6.9889
v  -1.0042 52.8652 -6.6791
v  -0.7300 52.3344 -6.6791
v  0.3881 52.3238 -6.6791
v  -0.6781 54.5393 -6.0882
v  -0.9174 56.9158 -5.8578
v  -0.1278 57.1428 -5.8045
v  -1.3783 58.3381 -5.8511
v  -2.2928 59.2185 -6.0615
v  -0.4716 58.4745 -5.7978
v  -0.0241 59.5069 -6.0083
v  -2.6767 56.0015 -5.5888
v  -2.8422 54.6841 -5.5888
v  -1.8518 55.5922 -3.9363
v  -2.0785 56.2280 -3.9363
v  -0.6654 55.7753 -3.2518
v  -0.6071 56.3934 -3.2518
v  -1.1074 55.5992 -4.3832
v  -1.1073 56.3031 -4.3832
v  -1.8663 56.2490 -4.7363
v  -2.1749 56.1582 -5.5888
v  -2.4076 54.7783 -5.5888
v  -1.7721 55.4018 -4.7363
v  -2.0785 56.2280 -7.2413
v  -1.8518 55.5922 -7.2413
v  -0.6071 56.3934 -7.9258
v  -0.6654 55.7753 -7.9258
v  -1.1073 56.3031 -6.7944
v  -1.1074 55.5992 -6.7944
v  -1.8663 56.2490 -6.4413
v  -1.7721 55.4018 -6.4413
v  1.5690 56.1045 -5.5888
v  0.1854 55.6384 -3.9363
v  0.1965 55.0541 -3.9363
v  1.9872 55.2970 -5.5888
v  -1.3156 55.4521 -3.2518
v  -1.3197 54.7596 -3.2518
v  -1.2605 55.3526 -4.1874
v  -1.3069 54.5558 -4.1874
v  0.8954 55.8228 -5.5888
v  0.0657 55.5700 -4.5979
v  0.0723 54.8074 -4.5979
v  1.1462 55.0665 -5.5888
v  0.1965 55.0541 -7.2413
v  0.1854 55.6384 -7.2413
v  -1.3197 54.7596 -7.9258
v  -1.3156 55.4521 -7.9258
v  -1.3069 54.5558 -6.9902
v  -1.2605 55.3526 -6.9903
v  0.0657 55.5700 -6.5798
v  0.0723 54.8074 -6.5798
v  -3.1496 58.8920 -5.5888
v  -0.9552 59.4381 -3.8911
v  -1.8322 61.9995 -3.8911
v  -2.9176 61.0363 -5.5888
v  -0.9552 58.7650 -5.5888
v  0.8567 59.1134 -5.5888
v  -1.4329 62.7954 -5.5888
v  -3.9641 63.9211 -5.5888
v  -1.8322 61.9995 -7.2865
v  -0.9552 59.4381 -7.2865
v  -2.4847 28.1889 -5.5888
v  -1.6134 28.8072 -4.7775
v  -2.4809 29.5959 -5.5888
v  -0.1598 28.9815 -4.4414
v  -0.1598 29.9995 -4.4439
v  -0.9694 30.7116 -4.7792
v  -1.9378 39.9883 -3.8108
v  -1.1238 40.7005 -4.6248
v  -1.5231 40.7005 -5.5888
v  -2.6742 39.9883 -5.5888
v  -0.1598 39.9883 -3.0744
v  -0.1598 40.7005 -4.2255
v  -1.3734 38.6512 -4.3752
v  -1.8761 38.6512 -5.5888
v  -0.1598 38.6512 -3.8725
v  -1.0611 37.5922 -4.6875
v  -1.0604 38.6512 -4.6882
v  -1.4335 38.6512 -5.5888
v  -1.4345 37.5922 -5.5888
v  -0.1598 37.5922 -4.3141
v  -0.1598 38.6512 -4.3151
v  -2.2505 36.8422 -3.4981
v  -3.1165 36.8422 -5.5888
v  -0.1598 36.8422 -2.6321
v  -1.8437 34.9708 -3.9049
v  -2.5412 34.9708 -5.5888
v  -0.1598 34.9708 -3.2074
v  -0.9676 34.5171 -4.7810
v  -1.3022 34.5171 -5.5888
v  -0.1598 34.5171 -4.4464
v  -1.3047 31.0074 -5.5888
v  -0.1598 29.9163 -5.5888
v  -0.1598 40.7005 -5.5888
v  2.1652 28.1889 -5.5888
v  2.1613 29.5959 -5.5888
v  1.2938 28.8072 -4.7775
v  0.6498 30.7116 -4.7792
v  1.6182 39.9883 -3.8108
v  2.3547 39.9883 -5.5888
v  1.2036 40.7005 -5.5888
v  0.8042 40.7005 -4.6248
v  1.0538 38.6512 -4.3752
v  1.5565 38.6512 -5.5888
v  0.7416 37.5922 -4.6875
v  1.1149 37.5922 -5.5888
v  1.1139 38.6512 -5.5888
v  0.7409 38.6512 -4.6882
v  1.9309 36.8422 -3.4981
v  2.7969 36.8422 -5.5888
v  1.5241 34.9708 -3.9049
v  2.2217 34.9708 -5.5888
v  0.6480 34.5171 -4.7810
v  0.9827 34.5171 -5.5888
v  0.9851 31.0074 -5.5888
v  -1.6134 28.8072 -6.4002
v  -0.9694 30.7116 -6.3984
v  -0.1598 29.9995 -6.7337
v  -0.1598 28.9815 -6.7362
v  -1.9378 39.9883 -7.3668
v  -1.1238 40.7005 -6.5528
v  -0.1598 39.9883 -8.1033
v  -0.1598 40.7005 -6.9522
v  -1.3734 38.6512 -6.8024
v  -0.1598 38.6512 -7.3051
v  -1.0611 37.5922 -6.4902
v  -1.0604 38.6512 -6.4895
v  -0.1598 37.5922 -6.8635
v  -0.1598 38.6512 -6.8625
v  -2.2505 36.8422 -7.6795
v  -0.1598 36.8422 -8.5455
v  -1.8437 34.9708 -7.2727
v  -0.1598 34.9708 -7.9703
v  -0.9676 34.5171 -6.3967
v  -0.1598 34.5171 -6.7313
v  1.2938 28.8072 -6.4002
v  0.6498 30.7116 -6.3984
v  1.6182 39.9883 -7.3668
v  0.8042 40.7005 -6.5528
v  1.0538 38.6512 -6.8024
v  0.7416 37.5922 -6.4902
v  0.7409 38.6512 -6.4895
v  1.9309 36.8422 -7.6795
v  1.5241 34.9708 -7.2727
v  0.6480 34.5171 -6.3967
v  -1.7406 13.5037 -5.5888
v  -1.3957 13.5037 -5.0524
v  -1.4080 24.4212 -4.7660
v  -1.8468 24.4212 -5.5888
v  -0.5630 13.5037 -4.8302
v  -0.3489 24.4212 -4.4252
v  0.2697 13.5037 -5.0524
v  0.7103 24.4212 -4.7660
v  0.6146 13.5037 -5.5888
v  1.1490 24.4212 -5.5888
v  -1.4313 25.3885 -4.7480
v  -1.0729 30.3748 -4.9420
v  -1.4178 30.3748 -5.5888
v  -1.8796 25.3885 -5.5888
v  -0.3489 25.3885 -4.3997
v  -0.2402 30.3748 -4.6741
v  0.7335 25.3885 -4.7480
v  0.5925 30.3748 -4.9420
v  1.1819 25.3885 -5.5888
v  0.9374 30.3748 -5.5888
v  -1.2220 24.8447 -4.9106
v  -1.5836 24.8447 -5.5888
v  -0.3489 24.8447 -4.6297
v  0.5242 24.8447 -4.9106
v  0.8858 24.8447 -5.5888
v  -1.4080 24.4212 -6.4116
v  -1.3957 13.5037 -6.1253
v  -0.3489 24.4212 -6.7524
v  -0.5630 13.5037 -6.3475
v  0.7103 24.4212 -6.4116
v  0.2697 13.5037 -6.1253
v  -1.4313 25.3885 -6.4297
v  -1.0729 30.3748 -6.2357
v  -0.3489 25.3885 -6.7780
v  -0.2402 30.3748 -6.5036
v  0.7335 25.3885 -6.4297
v  0.5925 30.3748 -6.2357
v  -1.2220 24.8447 -6.2670
v  -0.3489 24.8447 -6.5480
v  0.5242 24.8447 -6.2670
v  2.0659 15.5141 -5.5888
v  -0.4540 13.8855 -4.6563
v  -0.4540 13.2075 -4.6563
v  2.0470 14.0885 -5.5888
v  -3.0435 15.6194 -5.5888
v  -3.1889 14.4350 -5.5888
v  -0.4540 12.4344 -4.6563
v  1.4218 13.1466 -5.5888
v  -2.6262 13.1747 -5.5888
v  -0.3449 11.3744 -4.6563
v  2.6123 12.5812 -5.5888
v  -3.5225 12.5047 -5.5888
v  -0.3994 9.3230 -4.6563
v  1.6199 9.3642 -5.5888
v  -2.5290 9.3984 -5.5888
v  -0.4540 6.8788 -5.5888
v  -0.4540 14.2678 -5.5888
v  -0.4540 13.2075 -6.5213
v  -0.4540 13.8855 -6.5213
v  -0.4540 12.4344 -6.5213
v  -0.3449 11.3744 -6.5213
v  -0.3994 9.3230 -6.5213
v  4.8888 59.6092 -4.5632
v  4.3471 58.5659 -5.5888
v  7.2703 58.5538 -5.5888
v  7.1027 59.4289 -4.5632
v  4.7347 62.6518 -4.9024
v  9.1148 59.6992 -4.5632
v  10.1185 59.0534 -5.5888
v  7.4875 63.2676 -5.5888
v  7.0970 63.0962 -4.9024
v  4.2501 62.5426 -5.5888
v  4.1369 65.0759 -5.0456
v  3.1459 66.0777 -5.5888
v  6.9993 57.1390 -4.8511
v  6.4700 58.7513 -4.6590
v  7.8715 59.0221 -4.6590
v  8.1547 57.2621 -4.8511
v  7.0628 57.2022 -4.5704
v  8.0571 57.3128 -4.5704
v  7.7742 58.9655 -4.3784
v  6.5831 58.7565 -4.3784
v  7.5884 61.5657 -4.8892
v  5.9406 61.1471 -4.8892
v  6.1035 61.0945 -4.6085
v  7.4913 61.4018 -4.6085
v  5.0085 33.3596 -4.6142
v  6.4456 34.6980 -4.6142
v  6.6847 37.4596 -4.8647
v  4.9409 36.7014 -4.6142
v  4.7771 31.5227 -5.5888
v  7.2564 33.9066 -5.5888
v  10.0399 58.7060 -5.5888
v  5.0097 58.3855 -5.5888
v  5.3631 58.3855 -4.6142
v  9.2386 58.7060 -4.6142
v  3.3797 54.7846 -5.5888
v  3.7331 54.7846 -4.6142
v  1.4870 50.9283 -5.5888
v  2.1857 47.6872 -5.5888
v  2.5982 47.6872 -4.6142
v  1.8404 50.9283 -4.6142
v  8.2639 46.5887 -4.9624
v  7.2235 50.1396 -4.7703
v  1.9571 44.3541 -4.6142
v  1.6317 44.3541 -5.5888
v  3.1832 40.5277 -5.5888
v  3.4490 40.5277 -4.6142
v  6.7993 38.7354 -4.8647
v  7.3347 43.4827 -4.8167
v  4.7348 36.7014 -5.5888
v  9.7108 56.0531 -4.9620
v  10.5430 56.0531 -5.5888
v  6.4435 51.1568 -4.7703
v  8.1444 50.8717 -5.5888
v  7.7751 51.3358 -5.5888
v  7.2934 53.9399 -5.0107
v  10.4961 54.4731 -4.6142
v  12.0282 53.3092 -5.5888
v  8.4627 53.2387 -5.5888
v  7.6824 52.5459 -5.5888
v  6.2642 52.8079 -4.7703
v  8.3312 49.7941 -4.9624
v  8.7263 50.8612 -5.5888
v  10.5281 45.7117 -5.5888
v  12.8802 44.7486 -5.5888
v  11.4953 47.0845 -4.6142
v  9.4448 50.0367 -4.6142
v  12.3803 48.1073 -5.5888
v  10.0870 51.0889 -5.5888
v  9.6609 46.8031 -4.6142
v  8.4145 43.9319 -5.5888
v  8.5982 45.3572 -5.5888
v  8.0965 42.5038 -5.1250
v  8.8397 43.3925 -5.5888
v  7.9730 40.2971 -5.1250
v  7.5302 38.8241 -5.5888
v  8.0170 39.3623 -5.5888
v  9.1438 42.0677 -5.1250
v  9.9502 40.1606 -4.6142
v  11.2009 40.2789 -5.5888
v  9.6947 43.0732 -5.5888
v  8.8145 39.3827 -5.5888
v  9.3344 39.2385 -5.5888
v  8.8891 40.2339 -5.1250
v  7.6346 37.8417 -5.5888
v  9.0651 36.7244 -5.5888
v  7.6490 36.2971 -4.6142
v  9.6347 45.5476 -5.5888
v  10.4450 37.8689 -5.5888
v  4.8888 59.6092 -6.6145
v  7.1027 59.4289 -6.6145
v  4.7347 62.6518 -6.2753
v  9.1148 59.6992 -6.6145
v  7.0970 63.0962 -6.2753
v  4.1369 65.0759 -6.1320
v  6.9993 57.1390 -6.3266
v  8.1547 57.2621 -6.3266
v  7.8715 59.0221 -6.5186
v  6.4700 58.7513 -6.5186
v  7.0628 57.2022 -6.6072
v  6.5831 58.7565 -6.7993
v  7.7742 58.9655 -6.7993
v  8.0571 57.3128 -6.6072
v  7.5884 61.5657 -6.2884
v  7.4913 61.4018 -6.5691
v  6.1035 61.0945 -6.5691
v  5.9406 61.1471 -6.2884
v  5.0085 33.3596 -6.5635
v  4.9409 36.7014 -6.5635
v  6.6847 37.4596 -6.3129
v  6.4456 34.6980 -6.5635
v  9.2386 58.7060 -6.5635
v  5.3631 58.3855 -6.5635
v  3.7331 54.7846 -6.5635
v  1.8404 50.9283 -6.5635
v  2.5982 47.6872 -6.5635
v  8.2639 46.5887 -6.2152
v  1.9571 44.3541 -6.5635
v  7.2235 50.1396 -6.4073
v  3.4490 40.5277 -6.5635
v  6.7993 38.7354 -6.3129
v  7.3347 43.4827 -6.3609
v  9.7108 56.0531 -6.2157
v  6.4435 51.1568 -6.4073
v  7.2934 53.9399 -6.1670
v  10.4961 54.4731 -6.5635
v  6.2642 52.8079 -6.4073
v  8.3312 49.7941 -6.2152
v  11.4953 47.0845 -6.5635
v  9.4448 50.0367 -6.5635
v  9.6609 46.8031 -6.5635
v  8.0965 42.5038 -6.0527
v  7.9730 40.2971 -6.0527
v  9.1438 42.0677 -6.0527
v  9.9502 40.1606 -6.5635
v  8.8891 40.2339 -6.0527
v  7.6490 36.2971 -6.5635
v  3.0561 49.9977 -4.2353
v  3.3390 48.0518 -4.6142
v  4.4295 49.4552 -4.6142
v  4.1018 50.8275 -4.2353
v  8.5931 51.7145 -4.6142
v  5.3416 52.0338 -4.6142
v  5.3927 51.3029 -4.2353
v  1.8698 50.9891 -4.6142
v  5.4844 50.1928 -4.6142
v  3.5940 52.0118 -4.6142
v  3.1956 46.5424 -4.2675
v  2.4874 45.4202 -4.6142
v  4.3045 45.1336 -4.6142
v  4.8286 46.0760 -4.2675
v  8.4125 43.4968 -4.6142
v  6.9293 45.7012 -4.6142
v  6.4107 45.1836 -4.2675
v  3.3966 47.5776 -4.6142
v  5.8227 44.6715 -4.6142
v  5.1727 46.8556 -4.6142
v  3.0561 49.9977 -6.9424
v  4.1018 50.8275 -6.9424
v  4.4295 49.4552 -6.5635
v  3.3390 48.0518 -6.5635
v  8.5931 51.7145 -6.5635
v  5.3927 51.3029 -6.9424
v  5.3416 52.0338 -6.5635
v  1.8480 51.0552 -6.5635
v  5.4844 50.1928 -6.5635
v  3.5940 52.0118 -6.5635
v  3.3175 46.5150 -6.9102
v  4.8286 46.0760 -6.9102
v  4.3045 45.1336 -6.5635
v  2.7309 45.3105 -6.5635
v  8.4125 43.4968 -6.5635
v  6.4107 45.1836 -6.9102
v  6.9293 45.7012 -6.5635
v  3.4540 47.5776 -6.5635
v  5.8227 44.6715 -6.5635
v  5.1727 46.8556 -6.5635
v  4.7357 45.8750 -4.6142
v  1.9064 44.5606 -4.2509
v  1.7151 44.4188 -4.6142
v  2.3468 42.4773 -4.6142
v  2.6135 42.5024 -4.2509
v  2.3771 38.1595 -4.6142
v  4.0671 40.4908 -4.6142
v  2.8246 40.3859 -4.2509
v  2.4874 45.4100 -4.6142
v  2.6282 40.3091 -4.6142
v  4.3965 42.6098 -4.6142
v  2.9653 42.5842 -4.6142
v  1.9165 44.5046 -6.9268
v  2.6135 42.5024 -6.9268
v  2.3468 42.4773 -6.5635
v  1.6223 44.3079 -6.5635
v  2.3771 38.1595 -6.5635
v  2.8246 40.3859 -6.9268
v  4.0671 40.4908 -6.5635
v  2.6282 40.3091 -6.5635
v  4.3965 42.6098 -6.5635
v  2.9653 42.5842 -6.5635
v  1.6294 46.0773 -4.6388
v  2.0787 46.5075 -4.6294
v  3.3380 46.4174 -4.6311
v  1.7178 44.3301 -4.6260
v  1.6646 45.2667 -4.2638
v  2.6903 46.4534 -4.2296
v  1.8603 50.9907 -4.6211
v  1.4498 49.0738 -4.6338
v  1.6823 50.6162 -4.2856
v  1.9344 48.7308 -4.6272
v  2.5635 49.2382 -4.2368
v  2.2226 47.7870 -4.6186
v  3.0830 49.8146 -4.6544
v  3.4459 47.7870 -4.6186
v  2.9615 47.7870 -4.2178
v  1.6294 46.0773 -6.5388
v  1.7178 44.3301 -6.5516
v  3.3380 46.4174 -6.5465
v  2.0787 46.5075 -6.5482
v  1.6646 45.2667 -6.9139
v  2.6903 46.4534 -6.9480
v  1.8603 50.9907 -6.5565
v  1.6823 50.6162 -6.8920
v  1.4498 49.0738 -6.5439
v  2.5635 49.2382 -6.9409
v  1.9344 48.7308 -6.5505
v  2.2226 47.7870 -6.5591
v  3.4459 47.7870 -6.5591
v  3.0830 49.8146 -6.5233
v  2.9615 47.7870 -6.9599
v  -0.2505 47.5679 -5.8948
v  -3.1402 50.4577 -5.7834
v  -0.2505 51.0657 -5.7834
v  -4.3372 47.5679 -5.7834
v  -3.1402 44.6782 -5.7834
v  -0.2798 44.6878 -5.7834
v  -0.2504 52.7809 -5.5888
v  4.6547 48.9952 -5.5888
v  -4.3372 51.6546 -5.5888
v  -10.3910 50.8356 -5.5888
v  -9.1136 50.0422 -5.6248
v  -9.7289 49.6750 -5.5888
v  -4.7500 43.3198 -5.5888
v  -6.4486 46.5616 -5.5888
v  -0.2798 42.9950 -5.5888
v  -3.1223 42.7669 -5.5888
v  4.4803 43.4575 -5.5888
v  -8.7260 48.3697 -5.5888
v  -8.6443 48.0456 -5.6707
v  -8.4967 47.7384 -5.5888
v  -10.5877 48.2303 -5.6298
v  -10.5265 48.6643 -5.5888
v  -10.6457 47.9804 -5.5888
v  -6.9277 49.8300 -5.5888
v  -7.2381 49.5939 -5.6608
v  -8.7282 50.4679 -5.5888
v  -11.1073 48.1490 -5.5888
v  -7.6055 49.3208 -5.5888
v  -5.9251 50.3684 -5.5888
v  -5.8312 50.9911 -5.6739
v  -5.8602 51.3587 -5.5888
v  -6.9361 50.9544 -5.6686
v  -6.8332 51.1770 -5.5888
v  -6.9590 50.7718 -5.5888
v  -8.5725 51.0823 -5.6287
v  -8.6489 51.6220 -5.5888
v  -3.9009 43.0472 -5.7083
v  -4.2416 42.3106 -5.7044
v  -4.9368 42.5060 -5.5888
v  -3.2924 41.8750 -5.5888
v  -5.6347 40.1502 -5.5888
v  -5.4248 39.6973 -5.6858
v  -5.7180 39.0369 -5.5888
v  -4.9202 39.7868 -5.5888
v  -4.9297 41.4072 -5.5888
v  -4.6704 41.2448 -5.7342
v  -4.4423 41.1978 -5.5888
v  4.8738 47.7256 -5.5888
v  -0.2505 47.5679 -5.2828
v  -0.2505 51.0657 -5.3942
v  -3.1402 50.4577 -5.3942
v  -4.3372 47.5679 -5.3942
v  -3.1402 44.6782 -5.3942
v  -0.2798 44.6878 -5.3942
v  -9.1136 50.0422 -5.5528
v  -8.6443 48.0456 -5.5069
v  -10.5877 48.2303 -5.5479
v  -7.2381 49.5939 -5.5168
v  -5.8312 50.9911 -5.5037
v  -6.9361 50.9544 -5.5091
v  -8.5725 51.0823 -5.5489
v  -3.9009 43.0472 -5.4693
v  -4.2416 42.3106 -5.4733
v  -5.4248 39.6973 -5.4919
v  -4.6704 41.2448 -5.4434
# 794 vertices

vn -0.9867 0.1625 0.0000
vn -0.2730 0.2762 0.9215
vn -0.1599 0.9871 -0.0000
vn -0.6260 -0.7798 0.0000
vn 0.1966 0.1214 0.9729
vn 0.8202 0.5720 0.0000
vn 0.0637 -0.9980 -0.0000
vn -0.9748 -0.2230 0.0000
vn -0.2770 -0.2701 0.9221
vn -0.5751 0.8181 0.0000
vn -0.1511 -0.9885 -0.0000
vn 0.2182 -0.1545 0.9636
vn 0.4176 0.9086 -0.0000
vn 0.5707 -0.8212 -0.0000
vn -0.2730 0.2762 -0.9215
vn 0.1966 0.1214 -0.9729
vn -0.2770 -0.2701 -0.9221
vn 0.2182 -0.1545 -0.9636
vn -0.5762 0.8173 0.0000
vn -0.1195 0.1985 0.9728
vn 0.6183 0.7859 -0.0000
vn -0.9277 -0.3733 -0.0000
vn 0.9819 -0.1895 0.0000
vn 0.3699 -0.3834 0.8463
vn 0.6827 -0.7307 -0.0000
vn 0.0552 -0.9985 -0.0000
vn -0.1195 0.1985 -0.9728
vn 0.3699 -0.3834 -0.8462
vn -0.7660 -0.4464 -0.4625
vn -0.6344 0.1579 -0.7567
vn 0.1681 0.0746 -0.9829
vn -0.4878 -0.6389 -0.5948
vn -0.8894 -0.4571 0.0000
vn -0.5967 -0.8025 -0.0000
vn 0.3111 -0.9504 -0.0000
vn 0.2517 -0.7764 -0.5778
vn 0.8668 -0.1672 -0.4698
vn 0.9719 -0.2353 0.0000
vn -0.2469 0.9690 0.0000
vn 0.1164 0.6236 -0.7730
vn -0.0737 0.3308 -0.9408
vn -0.4729 0.8811 0.0000
vn -0.9992 0.0412 0.0000
vn -0.3583 -0.6480 -0.6721
vn -0.0094 0.1248 -0.9921
vn -0.0525 -0.0040 -0.9986
vn -0.3316 -0.7400 -0.5852
vn -0.4730 -0.8810 -0.0000
vn -0.4002 -0.9164 0.0000
vn 0.9169 0.3992 -0.0000
vn 0.6074 0.3163 -0.7287
vn -0.5415 0.7488 -0.3822
vn -0.7285 0.6851 -0.0000
vn -0.7660 -0.4464 0.4625
vn -0.4878 -0.6389 0.5948
vn 0.1681 0.0746 0.9829
vn -0.6344 0.1579 0.7567
vn 0.8668 -0.1672 0.4698
vn 0.2517 -0.7764 0.5778
vn -0.0737 0.3308 0.9408
vn 0.1164 0.6236 0.7730
vn -0.3583 -0.6480 0.6721
vn -0.3316 -0.7400 0.5852
vn -0.0525 -0.0040 0.9986
vn -0.0094 0.1248 0.9921
vn 0.6074 0.3163 0.7287
vn -0.5415 0.7488 0.3822
vn -0.7256 -0.2617 0.6364
vn -0.3931 -0.5487 0.7379
vn 0.4268 0.4943 0.7573
vn -0.1959 0.6400 0.7430
vn -0.9378 -0.3473 -0.0000
vn -0.5934 -0.8049 0.0000
vn 0.0174 -0.9998 -0.0000
vn 0.9885 -0.1510 -0.0000
vn 0.7178 -0.0614 0.6936
vn -0.0044 -0.7651 0.6439
vn 0.6850 0.7285 -0.0000
vn -0.3870 0.9221 0.0000
vn -0.7256 -0.2617 -0.6364
vn -0.1959 0.6400 -0.7430
vn 0.4268 0.4943 -0.7573
vn -0.3931 -0.5487 -0.7379
vn -0.0044 -0.7651 -0.6439
vn 0.7178 -0.0614 -0.6936
vn -0.7262 0.1676 0.6667
vn -0.3060 -0.6266 0.7167
vn 0.3693 0.4831 0.7939
vn 0.0067 0.8348 0.5505
vn -0.9857 0.1685 0.0000
vn -0.4172 -0.9088 0.0000
vn 0.7525 -0.6586 0.0000
vn 0.8496 0.5274 0.0000
vn 0.7643 0.3898 0.5137
vn 0.5645 -0.4954 0.6603
vn 0.5724 0.8200 0.0000
vn 0.0756 0.9971 -0.0000
vn -0.7262 0.1676 -0.6667
vn 0.0067 0.8348 -0.5505
vn 0.3693 0.4831 -0.7939
vn -0.3060 -0.6266 -0.7167
vn 0.5645 -0.4954 -0.6603
vn 0.7643 0.3898 -0.5137
vn 0.1566 -0.1704 -0.9729
vn 0.6554 -0.7553 -0.0000
vn -0.7809 -0.6246 -0.0000
vn 0.8545 0.5195 0.0000
vn -0.4937 0.8696 0.0000
vn 0.1566 -0.1704 0.9729
vn -0.5645 -0.8254 -0.0000
vn -0.1768 -0.1009 -0.9791
vn -0.0781 0.4520 -0.8886
vn -0.1103 0.0793 -0.9907
vn -0.8105 -0.5858 -0.0000
vn 0.0003 -0.3675 -0.9300
vn 0.4477 -0.8942 -0.0000
vn 0.4548 -0.7047 -0.5446
vn 0.2682 -0.1701 -0.9482
vn 0.9590 0.2835 0.0000
vn 0.1718 0.2756 -0.9458
vn 0.2612 0.9653 0.0000
vn -0.4317 0.9020 -0.0000
vn -0.9554 0.2954 0.0000
vn -0.7001 0.7141 0.0000
vn -0.4186 0.4493 0.7892
vn -0.8130 -0.5823 -0.0000
vn 0.1146 0.9934 -0.0000
vn -0.1707 0.1083 -0.9794
vn -0.3485 0.9373 0.0000
vn 0.8108 -0.5852 0.0125
vn -0.1067 -0.1276 -0.9861
vn 0.0009 -1.0000 0.0000
vn -0.0287 -0.6382 -0.7694
vn -0.9812 -0.1928 0.0000
vn -0.6092 0.0669 -0.7902
vn 0.0203 -0.6105 -0.7918
vn -0.3042 -0.9526 0.0000
vn -0.7561 -0.6545 -0.0000
vn 0.1860 0.0976 -0.9777
vn 0.9394 0.3427 -0.0000
vn -0.3228 -0.9465 0.0000
vn 0.5808 0.8141 -0.0000
vn -0.3314 0.9435 -0.0000
vn -0.1103 0.0793 0.9907
vn -0.0781 0.4520 0.8886
vn -0.1768 -0.1009 0.9791
vn 0.0003 -0.3675 0.9300
vn 0.2682 -0.1701 0.9482
vn 0.4548 -0.7047 0.5446
vn 0.1718 0.2756 0.9458
vn -0.4186 0.4493 -0.7892
vn -0.1707 0.1083 0.9794
vn -0.1067 -0.1276 0.9861
vn 0.8108 -0.5852 -0.0125
vn -0.0287 -0.6382 0.7694
vn 0.0203 -0.6105 0.7918
vn -0.6092 0.0669 0.7902
vn 0.1860 0.0976 0.9777
vn -0.1356 -0.6765 0.7239
vn 0.1997 -0.5010 0.8421
vn 0.0322 0.5534 0.8323
vn -0.6240 0.0209 0.7811
vn -0.1753 -0.5127 0.8405
vn -0.0209 0.3679 0.9296
vn 0.0951 0.6512 0.7529
vn 0.1963 -0.9805 -0.0000
vn 0.4010 -0.9161 -0.0000
vn -0.4011 -0.9160 -0.0000
vn -0.9183 -0.3960 0.0000
vn -0.4002 -0.3201 0.8587
vn -0.3198 -0.9475 -0.0000
vn 0.9953 -0.0972 -0.0000
vn 0.5289 -0.2916 0.7970
vn 0.0271 -0.4624 0.8862
vn 0.3581 0.9337 0.0000
vn 0.4008 0.2783 0.8729
vn 0.1599 0.9871 0.0000
vn 0.1114 0.2544 0.9607
vn -0.1147 0.9934 0.0000
vn -0.0346 0.9994 0.0000
vn 0.0601 0.9982 0.0000
vn -0.3496 0.9369 0.0000
vn -0.6301 0.7765 0.0000
vn 0.4435 -0.8963 -0.0000
vn -0.6172 -0.3473 0.7060
vn -0.9984 -0.0557 0.0000
vn -0.0011 -0.0847 0.9964
vn -0.5342 -0.4889 0.6896
vn -0.6766 -0.1009 0.7294
vn 0.6091 0.3327 0.7199
vn 0.7086 0.3271 0.6252
vn -0.8823 0.4707 0.0000
vn 0.2159 0.9764 0.0000
vn 0.0567 -0.9984 -0.0000
vn 0.7142 -0.7000 -0.0000
vn 0.5627 0.3800 0.7342
vn -0.1291 0.2580 0.9575
vn 0.5694 -0.4381 0.6956
vn -0.3665 0.9304 0.0000
vn 0.9836 -0.1802 -0.0000
vn -0.1356 -0.6765 -0.7239
vn -0.6240 0.0209 -0.7811
vn 0.0322 0.5534 -0.8323
vn 0.1997 -0.5010 -0.8421
vn -0.0209 0.3679 -0.9296
vn -0.1753 -0.5127 -0.8405
vn 0.0951 0.6512 -0.7529
vn -0.4002 -0.3201 -0.8587
vn 0.0271 -0.4624 -0.8862
vn 0.5289 -0.2916 -0.7970
vn 0.4008 0.2783 -0.8729
vn 0.1114 0.2544 -0.9607
vn -0.6172 -0.3473 -0.7060
vn -0.0011 -0.0847 -0.9964
vn -0.5342 -0.4889 -0.6896
vn 0.7086 0.3271 -0.6252
vn 0.6091 0.3327 -0.7199
vn -0.6766 -0.1009 -0.7294
vn 0.5627 0.3800 -0.7342
vn 0.5694 -0.4381 -0.6956
vn -0.1291 0.2580 -0.9575
vn -0.3571 -0.5331 0.7670
vn 0.2714 -0.5379 0.7982
vn 0.6541 0.0311 0.7557
vn -0.4852 0.0406 0.8735
vn 0.5404 0.1391 0.8298
vn -0.5723 0.1303 0.8096
vn 0.6353 -0.0063 0.7722
vn -0.6483 0.0067 0.7613
vn -0.4930 -0.8700 -0.0000
vn 0.5830 -0.8125 -0.0000
vn 1.0000 0.0042 -0.0000
vn 0.9741 0.2262 0.0000
vn 0.9999 -0.0149 0.0000
vn 0.9758 -0.2187 0.0000
vn 0.9589 -0.2838 0.0000
vn 0.6672 -0.2511 0.7013
vn 0.4723 -0.1835 0.8622
vn 0.5332 0.8460 0.0000
vn 0.4697 0.8828 0.0000
vn -0.0638 0.8789 0.4728
vn -0.8354 0.5497 -0.0000
vn -0.9589 -0.2839 0.0000
vn -0.6503 -0.2555 0.7154
vn -0.4521 0.5360 0.7130
vn -0.9361 -0.3518 0.0000
vn -0.9955 -0.0951 0.0000
vn -0.3502 -0.1687 0.9214
vn -0.9510 0.3093 -0.0000
vn -0.9999 -0.0116 0.0000
vn 0.3529 0.6379 0.6846
vn -0.1514 0.4899 0.8585
vn -0.3841 0.9233 -0.0000
vn -0.1573 0.4710 0.8680
vn -0.1167 0.6322 0.7660
vn -0.0113 0.1242 0.9922
vn 0.0100 0.0523 0.9986
vn 0.1304 0.0406 0.9906
vn -0.1157 0.0139 0.9932
vn -0.0744 -0.1112 0.9910
vn 0.0661 -0.0730 0.9951
vn -0.1579 0.6420 0.7503
vn -0.2389 -0.0079 0.9710
vn -0.9772 0.2123 0.0000
vn 0.3291 0.1562 0.9313
vn 0.9748 0.2229 -0.0000
vn -0.1644 -0.1715 0.9714
vn -0.5094 -0.6609 0.5512
vn -0.8627 -0.5057 0.0000
vn -0.8860 -0.4637 -0.0000
vn 0.2632 -0.0993 0.9596
vn 0.7442 -0.4272 0.5135
vn 0.9996 0.0271 0.0000
vn 0.9992 -0.0392 -0.0000
vn -0.3571 -0.5331 -0.7670
vn -0.4852 0.0406 -0.8735
vn 0.6541 0.0311 -0.7557
vn 0.2714 -0.5379 -0.7982
vn -0.5723 0.1303 -0.8096
vn 0.5404 0.1391 -0.8298
vn -0.6483 0.0067 -0.7613
vn 0.6353 -0.0063 -0.7722
vn 0.4723 -0.1835 -0.8622
vn 0.6672 -0.2511 -0.7013
vn -0.0638 0.8789 -0.4728
vn -0.4521 0.5360 -0.7130
vn -0.6503 -0.2555 -0.7154
vn -0.3502 -0.1687 -0.9214
vn -0.1514 0.4899 -0.8585
vn 0.3529 0.6379 -0.6846
vn -0.1573 0.4710 -0.8680
vn -0.0113 0.1242 -0.9922
vn -0.1167 0.6322 -0.7660
vn 0.1304 0.0406 -0.9906
vn 0.0100 0.0523 -0.9986
vn -0.1157 0.0139 -0.9932
vn -0.0744 -0.1112 -0.9910
vn 0.0661 -0.0730 -0.9951
vn -0.1579 0.6420 -0.7503
vn -0.2389 -0.0079 -0.9710
vn 0.3291 0.1562 -0.9313
vn -0.1644 -0.1715 -0.9714
vn -0.5094 -0.6609 -0.5512
vn 0.2632 -0.0993 -0.9596
vn 0.7442 -0.4272 -0.5135
vn -0.8274 0.5617 0.0000
vn -0.6894 -0.7244 -0.0000
vn -0.3827 -0.6614 0.6450
vn -0.6854 0.4976 0.5316
vn 0.5334 -0.4964 0.6848
vn 0.5974 0.5662 0.5679
vn 0.6359 -0.7608 -0.1300
vn 0.4811 0.8311 -0.2790
vn -0.1599 0.9870 -0.0165
vn -0.2981 0.9545 0.0000
vn 0.2118 -0.9773 -0.0000
vn 0.3863 -0.8879 0.2498
vn -0.6854 0.4976 -0.5316
vn -0.3827 -0.6614 -0.6450
vn 0.5974 0.5662 -0.5679
vn 0.5334 -0.4964 -0.6848
vn 0.4811 0.8311 0.2790
vn 0.6359 -0.7608 0.1300
vn -0.1599 0.9870 0.0165
vn 0.3863 -0.8879 -0.2498
vn 0.5026 0.8645 0.0000
vn 0.3573 0.7061 0.6114
vn 0.5261 -0.5013 0.6869
vn 0.9605 -0.2782 0.0000
vn -0.4868 0.5536 0.6757
vn -0.4296 -0.5400 0.7237
vn -0.7172 0.6872 -0.1153
vn -0.4806 -0.8582 0.1804
vn -0.3858 0.9226 -0.0000
vn -0.2731 0.9607 -0.0499
vn 0.3582 -0.8948 0.2664
vn 0.2642 -0.9645 0.0000
vn 0.5261 -0.5013 -0.6869
vn 0.3573 0.7061 -0.6114
vn -0.4296 -0.5400 -0.7237
vn -0.4868 0.5536 -0.6757
vn -0.4806 -0.8582 -0.1804
vn -0.7172 0.6872 0.1153
vn -0.2731 0.9607 0.0499
vn 0.3582 -0.8948 -0.2664
vn -0.8298 -0.5581 0.0000
vn 0.1629 -0.4045 0.8999
vn 0.0899 0.2703 0.9586
vn -0.9983 -0.0583 0.0000
vn 0.0642 -0.9979 -0.0000
vn 0.9380 -0.3467 -0.0000
vn 0.6421 0.7666 0.0000
vn -0.7002 0.7140 0.0000
vn 0.0899 0.2703 -0.9586
vn 0.1629 -0.4045 -0.8999
vn -0.5655 -0.8248 -0.0000
vn -0.0885 -0.6455 0.7586
vn -0.9197 0.3926 0.0000
vn 0.0000 -0.8309 0.5564
vn -0.0000 0.0019 1.0000
vn -0.6480 0.1055 0.7543
vn -0.6921 0.2052 0.6921
vn -0.2363 0.9425 0.2363
vn -0.3341 0.9425 0.0000
vn -0.9787 0.2052 -0.0000
vn -0.0000 0.2052 0.9787
vn 0.0000 0.9425 0.3341
vn -0.4070 -0.8177 0.4070
vn -0.5757 -0.8177 -0.0000
vn 0.0000 -0.8177 0.5756
vn -0.5573 0.6155 0.5573
vn -0.4205 -0.8040 0.4205
vn -0.5948 -0.8039 0.0000
vn -0.7881 0.6155 -0.0000
vn 0.0000 0.6155 0.7881
vn -0.0000 -0.8039 0.5947
vn -0.6589 0.3630 0.6589
vn -0.9318 0.3630 0.0000
vn -0.0000 0.3630 0.9318
vn -0.5446 -0.6379 0.5446
vn -0.7701 -0.6379 -0.0000
vn -0.0000 -0.6379 0.7701
vn -0.5380 -0.6490 0.5379
vn -0.7608 -0.6490 0.0000
vn 0.0000 -0.6490 0.7607
vn -0.9546 0.2980 0.0000
vn 0.0000 -1.0000 -0.0000
vn 0.0000 1.0000 0.0000
vn 0.5655 -0.8248 -0.0000
vn 0.9197 0.3926 -0.0000
vn 0.0885 -0.6455 0.7586
vn 0.6480 0.1055 0.7543
vn 0.6921 0.2052 0.6921
vn 0.9787 0.2052 -0.0000
vn 0.3341 0.9425 -0.0000
vn 0.2363 0.9425 0.2363
vn 0.4070 -0.8177 0.4070
vn 0.5756 -0.8177 0.0000
vn 0.5573 0.6155 0.5573
vn 0.7881 0.6155 -0.0000
vn 0.5947 -0.8039 0.0000
vn 0.4206 -0.8039 0.4206
vn 0.6589 0.3630 0.6589
vn 0.9318 0.3630 0.0000
vn 0.5446 -0.6379 0.5446
vn 0.7701 -0.6379 -0.0000
vn 0.5379 -0.6490 0.5379
vn 0.7608 -0.6490 -0.0000
vn 0.9546 0.2980 -0.0000
vn -0.0885 -0.6455 -0.7586
vn -0.6480 0.1055 -0.7543
vn -0.0000 0.0019 -1.0000
vn 0.0000 -0.8309 -0.5564
vn -0.6921 0.2052 -0.6921
vn -0.2363 0.9425 -0.2363
vn -0.0000 0.2052 -0.9787
vn 0.0000 0.9425 -0.3341
vn -0.4070 -0.8177 -0.4070
vn -0.0000 -0.8177 -0.5756
vn -0.5573 0.6155 -0.5573
vn -0.4205 -0.8039 -0.4206
vn 0.0000 0.6155 -0.7881
vn -0.0000 -0.8039 -0.5947
vn -0.6589 0.3630 -0.6589
vn 0.0000 0.3630 -0.9318
vn -0.5446 -0.6379 -0.5446
vn 0.0000 -0.6379 -0.7701
vn -0.5380 -0.6490 -0.5380
vn 0.0000 -0.6490 -0.7608
vn 0.0885 -0.6455 -0.7586
vn 0.6480 0.1055 -0.7543
vn 0.6921 0.2052 -0.6921
vn 0.2363 0.9425 -0.2363
vn 0.4070 -0.8177 -0.4070
vn 0.5573 0.6155 -0.5573
vn 0.4206 -0.8039 -0.4205
vn 0.6589 0.3630 -0.6589
vn 0.5446 -0.6379 -0.5446
vn 0.5379 -0.6490 -0.5380
vn -1.0000 -0.0097 0.0000
vn -0.5918 -0.0218 0.8058
vn -0.6304 0.2241 0.7432
vn -0.9682 0.2502 -0.0000
vn -0.0032 -0.0370 0.9993
vn 0.0020 0.1960 0.9806
vn 0.5854 -0.0449 0.8095
vn 0.6351 0.2120 0.7428
vn 0.9988 -0.0489 -0.0000
vn 0.9728 0.2315 -0.0000
vn -0.6410 -0.1737 0.7476
vn -0.6337 0.0755 0.7699
vn -0.9957 0.0922 0.0000
vn -0.9825 -0.1863 0.0000
vn -0.0022 -0.1647 0.9863
vn 0.0043 0.0548 0.9985
vn 0.6362 -0.1873 0.7485
vn 0.6411 0.0479 0.7659
vn 0.9783 -0.2071 0.0000
vn 0.9988 0.0490 -0.0000
vn -0.6192 0.0298 0.7846
vn -0.9994 0.0343 0.0000
vn -0.0000 0.0271 0.9996
vn 0.6192 0.0298 0.7846
vn 0.9994 0.0343 -0.0000
vn -0.6304 0.2241 -0.7432
vn -0.5918 -0.0218 -0.8058
vn 0.0020 0.1960 -0.9806
vn -0.0032 -0.0370 -0.9993
vn 0.6351 0.2120 -0.7428
vn 0.5854 -0.0449 -0.8095
vn -0.6410 -0.1737 -0.7476
vn -0.6337 0.0755 -0.7699
vn -0.0022 -0.1647 -0.9863
vn 0.0043 0.0548 -0.9985
vn 0.6362 -0.1873 -0.7485
vn 0.6411 0.0479 -0.7659
vn -0.6192 0.0298 -0.7846
vn -0.0000 0.0271 -0.9996
vn 0.6192 0.0298 -0.7846
vn 0.6383 0.7698 0.0000
vn 0.0067 0.3575 0.9339
vn 0.0141 -0.0000 0.9999
vn 0.9775 -0.2109 -0.0000
vn -0.5888 0.8083 -0.0000
vn -0.9973 -0.0735 0.0000
vn 0.0057 -0.0004 1.0000
vn 0.9883 0.1524 -0.0000
vn -0.9813 0.1922 0.0000
vn 0.0195 0.0004 0.9998
vn 0.9182 0.3962 0.0000
vn -0.9501 0.3119 0.0000
vn 0.0071 -0.1761 0.9843
vn 0.9018 -0.4322 0.0000
vn -0.9010 -0.4338 0.0000
vn -0.0085 -1.0000 -0.0000
vn 0.0123 0.9999 0.0000
vn 0.0141 0.0000 -0.9999
vn 0.0067 0.3575 -0.9339
vn 0.0057 -0.0004 -1.0000
vn 0.0195 0.0004 -0.9998
vn 0.0071 -0.1761 -0.9843
vn -0.4345 -0.2309 0.8706
vn -0.6507 -0.7594 -0.0000
vn 0.0883 -0.9961 0.0000
vn 0.0045 -0.3997 0.9166
vn -0.4413 0.0090 0.8973
vn 0.4812 -0.1307 0.8668
vn 0.8969 -0.4423 -0.0000
vn 0.7293 0.6842 -0.0000
vn 0.3682 0.4397 0.8192
vn -0.9872 -0.1596 0.0000
vn -0.0222 0.3992 0.9166
vn -0.6366 0.7712 0.0000
vn -0.4923 -0.6984 -0.5195
vn -0.8296 -0.2223 -0.5122
vn 0.8333 0.1160 -0.5405
vn 0.7174 -0.5084 -0.4763
vn -0.3674 -0.6506 0.6646
vn 0.5527 -0.4811 0.6805
vn 0.5430 0.0701 0.8368
vn -0.5377 -0.1458 0.8304
vn 0.5204 0.7623 -0.3848
vn -0.7975 0.4372 -0.4158
vn -0.5087 0.4323 0.7445
vn 0.3664 0.5226 0.7698
vn -0.4009 -0.2937 0.8678
vn 0.2276 -0.1993 0.9531
vn 0.2614 0.1251 0.9571
vn -0.5144 -0.1092 0.8506
vn -0.3119 -0.9501 0.0000
vn 0.7698 -0.6383 -0.0000
vn 0.7389 0.6738 -0.0000
vn -0.6360 0.7717 0.0000
vn -0.3635 0.6437 0.6734
vn 0.2685 0.6410 0.7190
vn -0.9038 0.4279 -0.0000
vn -0.4923 0.2237 0.8412
vn -0.9935 0.1139 -0.0000
vn -0.9997 -0.0250 0.0000
vn -0.4793 -0.0101 0.8776
vn -0.6316 0.0796 0.7712
vn 0.0230 -0.1458 0.9890
vn 0.2116 0.1696 0.9625
vn -0.6258 -0.0596 0.7777
vn -0.9945 -0.1045 0.0000
vn -0.9267 -0.3758 0.0000
vn -0.5560 -0.2168 0.8024
vn 0.4152 -0.0977 0.9045
vn 0.2667 0.0148 0.9637
vn -0.9797 -0.2003 0.0000
vn 0.2940 0.0862 0.9519
vn 0.9317 0.3631 0.0000
vn 0.2341 0.0847 0.9685
vn 0.3127 0.9499 -0.0000
vn 0.9114 0.4116 -0.0000
vn 0.1469 -0.1412 0.9790
vn 0.3339 -0.0214 0.9424
vn 0.8460 -0.5332 -0.0000
vn 0.1925 -0.9813 -0.0000
vn 0.8953 -0.4455 -0.0000
vn 0.1577 0.1007 0.9823
vn -0.0327 0.2305 0.9725
vn -0.0972 0.9953 0.0000
vn -0.0043 -1.0000 0.0000
vn 0.5861 -0.8102 0.0000
vn 0.3132 -0.0831 0.9460
vn -0.0120 0.4273 0.9040
vn 0.8999 0.4360 0.0000
vn 0.3960 0.9183 -0.0000
vn -0.0639 -0.3218 0.9446
vn 0.9730 0.2308 0.0000
vn 0.9093 -0.4162 0.0000
vn 0.2748 0.0850 0.9577
vn 0.5782 0.8159 -0.0000
vn 0.1754 -0.1588 0.9716
vn 0.9127 -0.4087 -0.0000
vn 0.5283 -0.8490 -0.0000
vn 0.0666 0.2200 0.9732
vn 0.1021 -0.0621 0.9928
vn 0.9955 0.0949 0.0000
vn 0.6307 0.7760 0.0000
vn -0.1255 -0.9921 0.0000
vn -0.5467 -0.8374 0.0000
vn -0.2356 -0.2238 0.9457
vn 0.8563 0.5165 -0.0000
vn 0.9805 0.1967 0.0000
vn 0.3617 0.0065 0.9323
vn 0.1807 -0.9835 0.0000
vn 0.1946 -0.9809 0.0000
vn -0.4345 -0.2309 -0.8706
vn 0.0045 -0.3997 -0.9166
vn -0.4413 0.0090 -0.8973
vn 0.4812 -0.1307 -0.8668
vn 0.3682 0.4397 -0.8192
vn -0.0222 0.3992 -0.9166
vn -0.4923 -0.6984 0.5195
vn 0.7174 -0.5084 0.4763
vn 0.8333 0.1160 0.5405
vn -0.8296 -0.2223 0.5122
vn -0.3674 -0.6506 -0.6646
vn -0.5377 -0.1458 -0.8304
vn 0.5430 0.0701 -0.8368
vn 0.5527 -0.4811 -0.6805
vn 0.5204 0.7623 0.3848
vn 0.3664 0.5226 -0.7698
vn -0.5087 0.4323 -0.7445
vn -0.7975 0.4372 0.4158
vn -0.4009 -0.2937 -0.8678
vn -0.5144 -0.1092 -0.8506
vn 0.2614 0.1251 -0.9571
vn 0.2276 -0.1993 -0.9531
vn 0.2685 0.6410 -0.7190
vn -0.3635 0.6437 -0.6734
vn -0.4923 0.2237 -0.8412
vn -0.6316 0.0796 -0.7712
vn -0.4793 -0.0101 -0.8776
vn 0.0230 -0.1458 -0.9890
vn -0.6258 -0.0596 -0.7777
vn 0.2116 0.1696 -0.9625
vn -0.5560 -0.2168 -0.8024
vn 0.4152 -0.0977 -0.9045
vn 0.2667 0.0148 -0.9637
vn 0.2940 0.0862 -0.9519
vn 0.2341 0.0847 -0.9685
vn 0.1469 -0.1412 -0.9790
vn 0.3339 -0.0214 -0.9424
vn 0.1577 0.1007 -0.9823
vn -0.0327 0.2305 -0.9725
vn 0.3132 -0.0831 -0.9460
vn -0.0120 0.4273 -0.9040
vn -0.0639 -0.3218 -0.9446
vn 0.2748 0.0850 -0.9577
vn 0.1754 -0.1588 -0.9716
vn 0.0666 0.2200 -0.9732
vn 0.1021 -0.0621 -0.9928
vn -0.2356 -0.2238 -0.9457
vn 0.3617 0.0065 -0.9323
vn -0.1817 -0.0955 0.9787
vn -0.0048 -0.1918 0.9814
vn 0.2227 -0.2097 0.9521
vn -0.0222 0.0294 0.9993
vn 0.9861 0.1613 -0.0394
vn 0.0288 0.7323 0.6804
vn 0.0278 0.1046 0.9941
vn -0.2296 0.0954 0.9686
vn 0.2794 -0.4505 0.8480
vn -0.0814 0.2719 0.9589
vn -0.3750 0.1650 0.9122
vn -0.7915 -0.6037 -0.0955
vn -0.2087 -0.9633 -0.1687
vn 0.0228 0.0582 0.9980
vn 0.7631 -0.6448 -0.0444
vn 0.6899 0.6966 -0.1968
vn 0.0623 -0.0152 0.9979
vn -0.2335 0.9643 -0.1251
vn -0.3244 -0.9141 -0.2435
vn 0.4542 0.8722 -0.1818
vn -0.1827 -0.0994 -0.9781
vn -0.0222 0.0294 -0.9993
vn 0.2227 -0.2097 -0.9521
vn -0.0050 -0.1918 -0.9814
vn 0.9861 0.1613 0.0394
vn 0.0278 0.1046 -0.9941
vn 0.0288 0.7323 -0.6804
vn -0.2197 0.0968 -0.9707
vn 0.2794 -0.4505 -0.8480
vn -0.0772 0.2736 -0.9587
vn -0.4078 0.1497 -0.9007
vn 0.0228 0.0577 -0.9981
vn -0.0592 -0.3155 -0.9471
vn -0.2007 -0.1795 -0.9631
vn 0.7631 -0.6448 0.0444
vn 0.0623 -0.0152 -0.9979
vn 0.5175 0.5225 -0.6776
vn -0.0914 0.3195 -0.9432
vn -0.2178 -0.6137 -0.7589
vn 0.1763 0.3339 -0.9260
vn 0.0000 0.0000 -1.0000
vn -0.4670 0.2705 0.8418
vn -0.8976 0.0634 -0.4362
vn -0.8573 -0.1976 -0.4753
vn -0.3171 -0.0654 0.9461
vn -0.3097 -0.9493 -0.0536
vn 0.9360 -0.3251 -0.1350
vn -0.3194 -0.0752 0.9446
vn 0.1926 0.9729 -0.1278
vn -0.8388 0.0071 -0.5444
vn 0.9778 0.1923 -0.0835
vn -0.4416 0.3604 -0.8217
vn -0.3164 -0.0658 -0.9464
vn -0.8451 -0.2256 0.4847
vn -0.9345 0.0750 0.3479
vn -0.3097 -0.9493 0.0536
vn -0.3194 -0.0752 -0.9446
vn 0.9360 -0.3251 0.1350
vn 0.3166 0.9409 0.1200
vn -0.8388 0.0071 0.5444
vn 0.9810 0.1748 0.0841
vn -0.0000 -0.0000 1.0000
vn -0.7996 0.5298 -0.2828
vn -0.7836 0.4899 -0.3821
vn 0.9170 -0.3129 -0.2475
vn -0.1897 -0.9739 -0.1249
vn -0.5708 -0.1640 0.8045
vn 0.0633 -0.0918 0.9938
vn -0.0959 0.9636 -0.2494
vn -0.8080 -0.5752 -0.1276
vn -0.5183 0.4889 0.7017
vn -0.7855 -0.5550 -0.2739
vn 0.0711 0.0354 0.9968
vn -0.9554 -0.1009 -0.2774
vn 0.8347 0.4990 -0.2330
vn 0.9496 0.0432 -0.3105
vn 0.1769 0.0108 0.9842
vn -0.7996 0.5298 0.2828
vn -0.1897 -0.9739 0.1249
vn 0.9170 -0.3129 0.2475
vn -0.7836 0.4899 0.3821
vn -0.5708 -0.1640 -0.8045
vn 0.0633 -0.0918 -0.9938
vn -0.0959 0.9636 0.2494
vn -0.5183 0.4889 -0.7017
vn -0.8080 -0.5752 0.1276
vn 0.0711 0.0354 -0.9968
vn -0.7855 -0.5550 0.2739
vn -0.9554 -0.1009 0.2774
vn 0.9496 0.0432 0.3105
vn 0.8347 0.4990 0.2330
vn 0.1769 0.0108 -0.9842
vn 0.0170 0.0001 -0.9999
vn -0.0321 0.0676 -0.9972
vn 0.6920 0.0560 -0.7198
vn -0.0455 -0.0069 -0.9989
vn -0.0327 -0.0492 -0.9983
vn 0.6494 -0.0613 -0.7580
vn 0.1546 0.9880 0.0000
vn 0.8788 0.4771 0.0000
vn -0.2147 0.9767 0.0000
vn -0.9506 0.3104 -0.0000
vn -0.0146 0.0118 -0.9998
vn -0.6382 -0.7699 -0.0000
vn -1.0000 0.0048 0.0000
vn -0.6654 -0.7465 0.0000
vn 0.0879 -0.9961 0.0000
vn 0.7800 -0.6257 0.0000
vn 0.7209 -0.6930 -0.0000
vn 0.0631 0.9980 0.0000
vn -0.0246 -0.0164 -0.9996
vn -0.4181 -0.9084 0.0000
vn -0.0513 -0.0151 -0.9986
vn -0.1977 0.9803 -0.0000
vn -0.2289 -0.9734 0.0000
vn 0.3069 0.9517 -0.0000
vn -0.0118 0.0687 -0.9976
vn 0.0091 0.0041 -1.0000
vn -0.9842 -0.1769 -0.0000
vn -0.4742 -0.8804 0.0000
vn -0.9984 0.0562 -0.0000
vn -0.0176 0.0614 -0.9980
vn -0.1874 0.9823 -0.0000
vn -0.0133 -0.0447 -0.9989
vn -0.0352 0.9994 0.0000
vn -0.0959 -0.9954 -0.0000
vn -0.0237 0.0100 -0.9997
vn -0.0994 0.9950 -0.0000
vn -0.0033 -0.0244 -0.9997
vn -0.0214 0.0201 -0.9996
vn -0.9928 0.1201 0.0000
vn 0.8371 -0.5470 -0.0000
vn -0.9252 0.3794 0.0000
vn -0.0636 -0.0823 -0.9946
vn -0.4229 -0.9062 -0.0000
vn 0.8880 -0.4599 -0.0000
vn -0.9810 0.1938 -0.0000
vn 0.0634 -0.0329 -0.9974
vn 0.6946 -0.7194 -0.0000
vn 0.9992 0.0388 0.0000
vn 0.0170 0.0001 0.9999
vn 0.6920 0.0560 0.7198
vn -0.0321 0.0676 0.9972
vn -0.0455 -0.0069 0.9989
vn -0.0327 -0.0492 0.9983
vn 0.6494 -0.0613 0.7580
vn -0.0146 0.0118 0.9998
vn -0.0246 -0.0164 0.9996
vn -0.0513 -0.0151 0.9986
vn 0.0091 0.0041 1.0000
vn -0.0118 0.0687 0.9976
vn -0.0176 0.0614 0.9980
vn -0.0133 -0.0447 0.9989
vn -0.0237 0.0100 0.9997
vn -0.0033 -0.0244 0.9997
vn -0.0214 0.0201 0.9996
vn -0.0636 -0.0823 0.9946
vn 0.0634 -0.0329 0.9974
# 795 vertex normals

vt 0.4260 0.5682 0.5000
vt 0.4219 0.6200 -0.5000
vt 0.3992 0.6180 -0.5000
vt 0.4553 0.6058 -0.5000
vt 0.4215 0.6586 0.5000
vt 0.3717 0.6670 -0.5000
vt 0.4808 0.6353 -0.5000
vt 0.4354 0.7068 -0.5000
vt 0.4124 0.6936 0.5000
vt 0.4230 0.7166 -0.5000
vt 0.4066 0.7173 -0.5000
vt 0.4294 0.7080 -0.5000
vt 0.4305 0.7325 -0.5000
vt 0.3991 0.7455 -0.5000
vt 0.4463 0.7183 0.5000
vt 0.4556 0.7536 -0.5000
vt 0.6757 0.7333 -0.6513
vt 0.6523 0.7508 0.0000
vt 0.6444 0.7316 0.0000
vt 0.6652 0.7711 0.0000
vt 0.6266 0.7398 -0.4789
vt 0.6427 0.7579 -0.1455
vt 0.6350 0.7624 -0.1455
vt 0.6427 0.7578 0.0000
vt 0.6266 0.7398 0.0000
vt 0.6490 0.7888 0.6513
vt 0.6491 0.7889 0.4789
vt 0.5552 0.2907 0.0000
vt 0.5714 0.3247 0.0000
vt 0.5984 0.3110 0.0000
vt 0.5756 0.2660 0.0000
vt 0.5422 0.2797 0.0000
vt 0.5630 0.2552 0.0000
vt 0.6426 0.2039 0.0000
vt 0.6298 0.2132 0.0000
vt 0.6506 0.2409 0.0000
vt 0.6643 0.2339 0.0000
vt 0.6295 0.3742 -0.0000
vt 0.6360 0.3517 0.0000
vt 0.6162 0.3357 0.0000
vt 0.6038 0.3577 0.0000
vt 0.5458 0.3364 0.0000
vt 0.5378 0.2939 0.0000
vt 0.5956 0.2430 0.0000
vt 0.6253 0.2806 0.0000
vt 0.6349 0.2569 0.0000
vt 0.6132 0.2277 0.0000
vt 0.5840 0.2315 0.0000
vt 0.6020 0.2150 0.0000
vt 0.6793 0.2826 0.0000
vt 0.6619 0.2768 0.0000
vt 0.6465 0.3731 0.0000
vt 0.6789 0.2753 0.0000
vt 0.5738 0.3476 0.0000
vt 0.5773 0.3635 0.0000
vt 0.5571 0.3569 0.0000
vt 0.6188 0.2005 0.0000
vt 0.2048 0.5129 0.0000
vt 0.2038 0.4218 0.0000
vt 0.2470 0.4350 0.0000
vt 0.2570 0.5442 0.0000
vt 0.1893 0.5184 0.0000
vt 0.1783 0.4204 0.0000
vt 0.2019 0.3213 -0.0000
vt 0.2335 0.3072 0.0000
vt 0.2347 0.3263 0.0000
vt 0.2090 0.3373 0.0000
vt 0.2490 0.3148 0.0000
vt 0.2728 0.4332 0.0000
vt 0.2570 0.5655 -0.0000
vt 0.1958 0.5277 0.0000
vt 0.1940 0.3296 0.0000
vt 0.2736 0.5564 0.0000
vt 0.1927 0.5620 0.0000
vt 0.2404 0.5808 0.0000
vt 0.2064 0.6386 0.0000
vt 0.1903 0.6285 0.0000
vt 0.1899 0.5571 0.0000
vt 0.2423 0.5777 0.0000
vt 0.2758 0.6380 0.0000
vt 0.2214 0.6488 0.0000
vt 0.2214 0.6455 0.0000
vt 0.2709 0.6357 0.0000
vt 0.2051 0.6409 0.0000
vt 0.1871 0.6294 0.0000
vt 0.2403 0.6774 0.0000
vt 0.2534 0.6643 0.0000
vt 0.2057 0.6622 0.0000
vt 0.2608 0.6978 0.0000
vt 0.2134 0.7173 0.0000
vt 0.4264 0.7456 0.0000
vt 0.4385 0.8010 0.0000
vt 0.4545 0.8403 0.0000
vt 0.4605 0.8065 0.0000
vt 0.4699 0.7719 0.0000
vt 0.5519 0.7173 0.0000
vt 0.5522 0.8089 0.0000
vt 0.5712 0.8209 0.0000
vt 0.5341 0.8349 0.0000
vt 0.5429 0.8621 0.0000
vt 0.4492 0.8513 0.0000
vt 0.4319 0.8052 0.0000
vt 0.2194 0.0066 0.0000
vt 0.2200 0.0095 0.0000
vt 0.1555 0.0201 -0.0000
vt 0.4875 0.8374 0.0000
vt 0.4738 0.8031 0.0000
vt 0.5140 0.8472 0.0000
vt 0.2425 0.0038 0.0000
vt 0.3207 0.0230 0.0000
vt 0.2962 0.0344 0.0000
vt 0.2552 0.0265 0.0000
vt 0.5065 0.7428 0.0000
vt 0.4882 0.7427 0.0000
vt 0.4898 0.7445 0.0000
vt 0.4952 0.7374 0.0000
vt 0.4936 0.7356 0.0000
vt 0.4946 0.7542 0.0000
vt 0.5366 0.7763 0.0000
vt 0.2601 0.0391 0.0000
vt 0.2550 0.0290 0.0000
vt 0.2418 0.0009 0.0000
vt 0.5002 0.7030 0.0000
vt 0.5068 0.7309 0.0000
vt 0.5737 0.6601 0.0000
vt 0.4914 0.7229 0.0000
vt 0.4518 0.7168 -0.0000
vt 0.5249 0.6216 0.0000
vt 0.5810 0.1127 0.0000
vt 0.5578 0.0872 0.0000
vt 0.5539 0.0239 0.0000
vt 0.5871 0.0492 0.0000
vt 0.5337 0.0897 0.0000
vt 0.5368 0.0442 0.0000
vt 0.5064 0.0177 0.0000
vt 0.5824 0.1232 0.0000
vt 0.5562 0.0925 0.0000
vt 0.5366 0.0950 0.0000
vt 0.5278 0.1136 0.0000
vt 0.5224 0.1082 0.0000
vt 0.5312 0.2034 0.0000
vt 0.4548 0.1118 0.0000
vt 0.4713 0.1203 0.0000
vt 0.5190 0.1768 0.0000
vt 0.4634 0.0176 0.0000
vt 0.4737 0.0553 0.0000
vt 0.4872 0.0282 0.0000
vt 0.4887 0.0547 0.0000
vt 0.5065 0.0037 0.0000
vt 0.5358 0.0364 0.0000
vt 0.5553 0.0026 0.0000
vt 0.5749 0.0137 0.0000
vt 0.5932 0.0131 0.0000
vt 0.6096 0.1988 0.0000
vt 0.6517 0.1109 0.0000
vt 0.6610 0.0916 0.0000
vt 0.5107 0.1116 0.0000
vt 0.2747 0.1606 0.0000
vt 0.2383 0.2299 0.0000
vt 0.2003 0.2143 0.0000
vt 0.2430 0.1413 0.0000
vt 0.2096 0.2628 0.0000
vt 0.1931 0.2531 0.0000
vt 0.2748 0.1381 0.0000
vt 0.2631 0.1340 0.0000
vt 0.6144 0.0523 0.0000
vt 0.6255 0.0504 0.0000
vt 0.6054 0.1228 0.0000
vt 0.6103 0.0249 0.0000
vt 0.6298 0.0061 0.0000
vt 0.5966 0.1297 0.0000
vt 0.2843 0.1699 0.0000
vt 0.2519 0.2347 0.0000
vt 0.2086 0.2723 0.0000
vt 0.2788 0.1349 0.0000
vt 0.1923 0.2092 0.0000
vt 0.2318 0.1375 0.0000
vt 0.2635 0.1304 0.0000
vt 0.0533 0.9129 0.0000
vt 0.0538 0.8719 0.0000
vt 0.0998 0.8448 0.0000
vt 0.1055 0.9379 0.0000
vt 0.1451 0.8554 0.0000
vt 0.1447 0.9257 0.0000
vt 0.2739 0.8531 0.0000
vt 0.2750 0.9217 0.0000
vt 0.0248 0.9255 0.0000
vt 0.0290 0.8528 0.0000
vt 0.0890 0.8161 0.0000
vt 0.1512 0.8246 0.0000
vt 0.2759 0.8233 0.0000
vt 0.3083 0.8211 0.0000
vt 0.3590 0.8030 0.0000
vt 0.3643 0.8301 0.0000
vt 0.3227 0.8497 0.0000
vt 0.4201 0.8032 0.0000
vt 0.4340 0.8473 0.0000
vt 0.4225 0.8536 0.0000
vt 0.3947 0.9689 0.0000
vt 0.3641 0.9742 0.0000
vt 0.3637 0.9471 0.0000
vt 0.3839 0.9460 0.0000
vt 0.3080 0.9535 0.0000
vt 0.2746 0.9517 0.0000
vt 0.3247 0.9221 0.0000
vt 0.1531 0.9553 0.0000
vt 0.0906 0.9759 0.0000
vt 0.4045 0.8220 0.0000
vt 0.4017 0.8530 0.0000
vt 0.4102 0.9501 0.0000
vt 0.3937 0.9114 0.0000
vt 0.4001 0.8960 0.0000
vt 0.3778 0.8899 0.0000
vt 0.3610 0.8874 0.0000
vt 0.3622 0.8687 0.0000
vt 0.3615 0.9064 0.0000
vt 0.3471 0.9002 0.0000
vt 0.3469 0.8706 0.0000
vt 0.4156 0.9020 0.0000
vt 0.4814 0.9156 0.0000
vt 0.4728 0.9269 0.0000
vt 0.4903 0.8951 0.0000
vt 0.4947 0.8870 0.0000
vt 0.5194 0.9341 0.0000
vt 0.5419 0.9605 0.0000
vt 0.5329 0.9690 0.0000
vt 0.5203 0.9530 0.0000
vt 0.5269 0.9093 0.0000
vt 0.5567 0.9021 0.0000
vt 0.5335 0.8978 0.0000
vt 0.5535 0.8918 0.0000
vt 0.5409 0.5319 0.0000
vt 0.5749 0.5279 0.0000
vt 0.5630 0.5670 0.0000
vt 0.5447 0.5701 0.0000
vt 0.5570 0.6028 0.0000
vt 0.5411 0.6047 0.0000
vt 0.5272 0.6116 0.0000
vt 0.5088 0.5869 0.0000
vt 0.5243 0.5785 0.0000
vt 0.5320 0.5593 0.0000
vt 0.5297 0.5376 0.0000
vt 0.5851 0.5389 0.0000
vt 0.5821 0.5660 0.0000
vt 0.5810 0.5834 0.0000
vt 0.6221 0.6085 -0.6084
vt 0.6223 0.6486 -0.6084
vt 0.6346 0.6512 -0.6084
vt 0.6397 0.6067 -0.1328
vt 0.6183 0.6777 -0.6084
vt 0.6339 0.6829 -0.6084
vt 0.6036 0.6671 -0.6084
vt 0.5933 0.6785 0.6084
vt 0.6074 0.6901 -0.6084
vt 0.6115 0.6179 -0.6084
vt 0.6123 0.6425 -0.6084
vt 0.6458 0.6476 -0.6084
vt 0.6494 0.6203 -0.6084
vt 0.6498 0.6742 -0.6084
vt 0.7080 0.8806 0.0000
vt 0.6427 0.9264 0.0000
vt 0.6003 0.8467 0.0000
vt 0.6497 0.8394 0.0000
vt 0.6593 0.9413 0.0000
vt 0.6079 0.9814 0.0000
vt 0.5712 0.8397 0.0000
vt 0.6033 0.7481 0.0000
vt 0.3772 0.7838 6.2558
vt 0.3303 0.7499 -5.5395
vt 0.3862 0.7248 -5.5395
vt 0.2687 0.7271 -5.5395
vt 0.2788 0.6843 -5.5395
vt 0.3233 0.6595 -5.5395
vt 0.3805 0.1444 -5.5395
vt 0.3859 0.0954 -5.5395
vt 0.4307 0.0872 -6.2558
vt 0.4578 0.1434 -5.5395
vt 0.3047 0.1336 -5.5395
vt 0.3417 0.0771 -5.5395
vt 0.3727 0.2014 -5.5395
vt 0.4329 0.2176 -5.5395
vt 0.3172 0.2038 -5.5395
vt 0.3649 0.2781 -5.5395
vt 0.3709 0.2214 -5.5395
vt 0.4189 0.2355 -5.5395
vt 0.4112 0.2811 -5.5395
vt 0.3181 0.2663 -5.5395
vt 0.3245 0.2204 -5.5395
vt 0.3605 0.3544 -5.5395
vt 0.4424 0.3536 -5.5395
vt 0.2704 0.3426 -5.5395
vt 0.3505 0.4207 -5.5395
vt 0.4252 0.4388 -5.5395
vt 0.2810 0.4272 -5.5395
vt 0.3474 0.4770 -5.5395
vt 0.3874 0.4892 -5.5395
vt 0.3062 0.4772 -5.5395
vt 0.3629 0.6491 -5.5395
vt 0.2511 0.7880 -5.5395
vt 0.3924 0.0347 -5.5395
vt 0.1853 0.7475 10.1495
vt 0.1433 0.7465 -4.7811
vt 0.1282 0.4369 -4.7811
vt 0.1664 0.4373 -4.7811
vt 0.1060 0.7479 -4.7811
vt 0.0902 0.4381 -4.7811
vt 0.0687 0.7480 -4.7811
vt 0.0520 0.4383 -4.7811
vt 0.0318 0.7489 -4.7811
vt 0.0136 0.4373 -4.7811
vt 0.1259 0.3976 -4.7811
vt 0.1045 0.2470 -4.7811
vt 0.1472 0.2439 -10.1495
vt 0.1646 0.3957 -4.7811
vt 0.0886 0.3989 -4.7811
vt 0.0777 0.2473 -4.7811
vt 0.0515 0.3993 -4.7811
vt 0.0570 0.2443 -4.7811
vt 0.0132 0.3999 -4.7811
vt 0.0144 0.2465 -4.7811
vt 0.1269 0.4200 -4.7811
vt 0.1641 0.4184 -4.7811
vt 0.0895 0.4205 -4.7811
vt 0.0522 0.4201 -4.7811
vt 0.0139 0.4193 -4.7811
vt 0.5428 0.2610 0.0000
vt 0.4978 0.2573 0.0000
vt 0.4941 0.2506 0.0000
vt 0.5357 0.2432 0.0000
vt 0.4763 0.2979 -4.3703
vt 0.4660 0.2858 0.0000
vt 0.4900 0.2431 0.0000
vt 0.5259 0.2337 0.0000
vt 0.4613 0.2697 0.0000
vt 0.4849 0.2323 0.0000
vt 0.5300 0.2186 0.0000
vt 0.4491 0.2650 0.0000
vt 0.4739 0.2146 0.0000
vt 0.4981 0.1907 0.0000
vt 0.4409 0.2252 0.0000
vt 0.4547 0.1831 4.3703
vt 0.5115 0.2819 0.0000
vt 0.5224 0.4799 0.0000
vt 0.4960 0.4911 0.0000
vt 0.5061 0.4180 0.0000
vt 0.5261 0.4240 0.0000
vt 0.5922 0.4942 0.0000
vt 0.5373 0.3885 0.0000
vt 0.5278 0.3485 0.0000
vt 0.6161 0.4281 0.0000
vt 0.6070 0.4460 0.0000
vt 0.5877 0.5066 0.0000
vt 0.6462 0.5173 0.0000
vt 0.6656 0.5459 0.0000
vt 0.3897 0.5547 -0.2555
vt 0.4410 0.5625 -0.0297
vt 0.4418 0.5185 -0.0297
vt 0.3874 0.5190 -0.2555
vt 0.3913 0.5525 0.0745
vt 0.3894 0.5217 0.0745
vt 0.4406 0.5218 0.3003
vt 0.4405 0.5590 0.3003
vt 0.5199 0.5140 -0.3003
vt 0.5158 0.5662 -0.3003
vt 0.5134 0.5615 0.0297
vt 0.5154 0.5178 0.0297
vt 0.7701 0.1977 0.0000
vt 0.8109 0.2368 0.0000
vt 0.8182 0.3174 0.0000
vt 0.7681 0.2953 0.0000
vt 0.7654 0.1436 0.0000
vt 0.8359 0.2133 0.0000
vt 0.9150 0.9377 0.0000
vt 0.7720 0.9283 0.0000
vt 0.7801 0.9287 0.0000
vt 0.8903 0.9381 0.0000
vt 0.7257 0.8230 0.0000
vt 0.7338 0.8235 0.0000
vt 0.6718 0.7104 0.0000
vt 0.6917 0.6157 0.0000
vt 0.7015 0.6161 0.0000
vt 0.6800 0.7108 0.0000
vt 0.8633 0.5840 0.0000
vt 0.8333 0.6878 0.0000
vt 0.6833 0.5188 0.0000
vt 0.6760 0.5183 0.0000
vt 0.7201 0.4066 0.0000
vt 0.7257 0.4070 0.0000
vt 0.8215 0.3546 0.0000
vt 0.8366 0.4933 0.0000
vt 0.7642 0.2949 0.0000
vt 0.9044 0.8605 0.0000
vt 0.9293 0.8602 0.0000
vt 0.8112 0.7175 0.0000
vt 0.8611 0.7089 0.0000
vt 0.8506 0.7224 0.0000
vt 0.8358 0.7987 0.0000
vt 0.9261 0.8145 0.0000
vt 0.9715 0.7801 0.0000
vt 0.8702 0.7780 0.0000
vt 0.8480 0.7577 0.0000
vt 0.8061 0.7657 0.0000
vt 0.8652 0.6776 0.0000
vt 0.8777 0.7086 0.0000
vt 0.9289 0.5582 0.0000
vt 0.9957 0.5301 0.0000
vt 0.9545 0.5987 0.0000
vt 0.8962 0.6849 0.0000
vt 0.9815 0.6282 0.0000
vt 0.9163 0.7152 0.0000
vt 0.9023 0.5905 0.0000
vt 0.8688 0.5062 0.0000
vt 0.8740 0.5478 0.0000
vt 0.8588 0.4646 0.0000
vt 0.8809 0.4904 0.0000
vt 0.8553 0.4002 0.0000
vt 0.8436 0.3569 0.0000
vt 0.8575 0.3727 0.0000
vt 0.8886 0.4519 0.0000
vt 0.9105 0.3964 0.0000
vt 0.9480 0.3995 0.0000
vt 0.9052 0.4811 0.0000
vt 0.8802 0.3733 0.0000
vt 0.8949 0.3691 0.0000
vt 0.8814 0.3983 0.0000
vt 0.8466 0.3282 0.0000
vt 0.8873 0.2956 0.0000
vt 0.8451 0.2835 0.0000
vt 0.9035 0.5534 0.0000
vt 0.9265 0.3291 0.0000
vt 0.9366 0.0374 0.0000
vt 0.8750 0.0192 0.0000
vt 0.9003 0.0728 0.0000
vt 0.9457 0.0817 0.0000
vt 0.9056 0.2345 0.0000
vt 0.9630 0.1372 0.0000
vt 0.9406 0.1287 0.0000
vt 0.9856 0.0143 0.0000
vt 0.9065 0.1161 0.0000
vt 0.9881 0.0823 0.0000
vt 0.8127 0.0196 0.0000
vt 0.8670 0.0223 0.0000
vt 0.8573 0.0701 0.0000
vt 0.8133 0.0706 0.0000
vt 0.8766 0.2157 0.0000
vt 0.8045 0.1377 0.0000
vt 0.8313 0.1308 0.0000
vt 0.7683 0.0069 0.0000
vt 0.8586 0.1217 0.0000
vt 0.7779 0.0684 0.0000
vt 0.8223 0.0712 0.0000
vt 0.7167 0.0289 0.5013
vt 0.7292 0.0270 3.0742
vt 0.7224 0.0737 0.5013
vt 0.7100 0.0728 0.5013
vt 0.6990 0.1740 -3.0742
vt 0.6728 0.1163 0.5013
vt 0.7014 0.1220 0.5013
vt 0.6993 0.0102 0.5013
vt 0.7442 0.1296 0.5013
vt 0.7114 0.1261 0.5013
vt 0.6685 0.0707 0.5013
vt 0.7614 0.0193 0.5013
vt 0.7366 0.0774 0.5013
vt 0.7665 0.0898 0.5013
vt 0.4536 0.3614 -0.2384
vt 0.4641 0.3768 -0.2273
vt 0.5016 0.3821 -0.2293
vt 0.4672 0.3107 -0.2234
vt 0.4598 0.3378 0.2026
vt 0.4824 0.3791 0.2427
vt 0.4296 0.5069 -0.2176
vt 0.4296 0.4481 -0.2324
vt 0.4267 0.4948 0.1769
vt 0.4459 0.4411 -0.2247
vt 0.4612 0.4599 0.2343
vt 0.4603 0.4152 -0.2146
vt 0.4728 0.4801 -0.2567
vt 0.4962 0.4229 -0.2146
vt 0.4820 0.4199 0.2567
vt 0.0956 0.1094 0.0000
vt 0.1483 0.0530 0.0000
vt 0.0985 0.0386 0.0000
vt 0.1668 0.1124 0.0000
vt 0.1435 0.1700 0.0000
vt 0.0938 0.1678 0.0000
vt 0.1000 0.0039 0.0000
vt 0.0114 0.0770 0.0000
vt 0.1702 0.0296 0.0000
vt 0.2749 0.0505 0.0000
vt 0.2520 0.0657 0.0000
vt 0.2624 0.0736 0.0000
vt 0.1704 0.1986 0.0000
vt 0.2027 0.1342 0.0000
vt 0.0923 0.2020 0.0000
vt 0.1416 0.2087 0.0000
vt 0.0099 0.1892 0.0000
vt 0.2438 0.0993 0.0000
vt 0.2422 0.1058 0.0000
vt 0.2393 0.1119 0.0000
vt 0.2761 0.1034 0.0000
vt 0.2754 0.0946 0.0000
vt 0.2769 0.1085 0.0000
vt 0.2138 0.0684 0.0000
vt 0.2190 0.0734 0.0000
vt 0.2456 0.0568 0.0000
vt 0.2851 0.1054 0.0000
vt 0.2251 0.0792 0.0000
vt 0.1967 0.0568 0.0000
vt 0.1956 0.0441 0.0000
vt 0.1964 0.0367 0.0000
vt 0.2148 0.0457 0.0000
vt 0.2132 0.0411 0.0000
vt 0.2151 0.0494 0.0000
vt 0.2434 0.0442 0.0000
vt 0.2452 0.0334 0.0000
vt 0.1554 0.2035 0.0000
vt 0.1607 0.2187 0.0000
vt 0.1730 0.2152 0.0000
vt 0.1439 0.2268 0.0000
vt 0.1832 0.2634 0.0000
vt 0.1792 0.2724 0.0000
vt 0.1837 0.2860 0.0000
vt 0.1705 0.2703 0.0000
vt 0.1720 0.2375 0.0000
vt 0.1673 0.2406 0.0000
vt 0.1633 0.2414 0.0000
vt 0.0066 0.1026 0.0000
# 528 texture coords

o 对象001
g 对象001
s 8
f 1/1/1 2/2/2 3/3/3 
f 1/1/1 4/4/4 2/2/2 
f 2/2/2 5/5/5 6/6/6 3/3/3 
f 4/4/4 7/7/7 5/5/5 2/2/2 
s 1
f 6/8/6 5/5/5 7/7/7 
s 8
f 8/9/8 9/10/9 10/11/10 
f 8/9/8 11/12/11 9/10/9 
f 9/10/9 12/13/12 13/14/13 10/11/10 
f 11/12/11 14/15/14 12/13/12 9/10/9 
s 1
f 13/16/13 12/13/12 14/15/14 
s 8
f 1/1/1 3/3/3 15/2/15 
f 1/1/1 15/2/15 4/4/4 
f 15/2/15 3/3/3 6/6/6 16/5/16 
f 4/4/4 15/2/15 16/5/16 7/7/7 
s 1
f 6/8/6 7/7/7 16/5/16 
s 8
f 8/9/8 10/11/10 17/10/17 
f 8/9/8 17/10/17 11/12/11 
f 17/10/17 10/11/10 13/14/13 18/13/18 
f 11/12/11 17/10/17 18/13/18 14/15/14 
s 1
f 13/16/13 14/15/14 18/13/18 
f 19/17/19 20/18/20 21/19/21 
f 19/17/19 22/20/22 20/18/20 
s 2
f 23/21/23 24/22/24 25/23/25 
s 1
f 20/18/20 24/24/24 23/25/23 21/19/21 
f 22/20/22 26/26/26 24/24/24 20/18/20 
s 2
f 24/22/24 26/27/26 25/23/25 
s 1
f 19/17/19 21/19/21 27/18/27 
f 19/17/19 27/18/27 22/20/22 
s 2
f 23/21/23 25/23/25 28/22/28 
s 1
f 27/18/27 21/19/21 23/25/23 28/24/28 
f 22/20/22 27/18/27 28/24/28 26/26/26 
s 2
f 28/22/28 25/23/25 26/27/26 
s 1
f 29/28/29 30/29/30 31/30/31 32/31/32 
s 2
f 33/32/33 29/28/29 32/31/32 34/33/34 
s 1
f 35/34/35 36/35/36 37/36/37 38/37/38 
f 39/38/39 40/39/40 41/40/41 42/41/42 
s 4
f 43/42/43 30/29/30 29/28/29 33/43/33 
s 1
f 44/44/44 45/45/45 46/46/46 47/47/47 
s 2
f 48/48/48 44/44/44 47/47/47 49/49/49 
f 50/50/50 51/51/51 40/39/40 39/52/39 
s 4
f 45/45/45 41/40/41 40/39/40 51/51/51 
s 8
f 38/37/38 37/36/37 51/51/51 50/53/50 
s 2
f 42/41/42 41/40/41 52/54/52 53/55/53 
s 16
f 37/36/37 46/46/46 51/51/51 
s 4
f 53/56/53 52/54/52 30/29/30 43/42/43 
s 16
f 47/47/47 46/46/46 37/36/37 36/35/36 
s 2
f 49/49/49 47/47/47 36/35/36 35/57/35 
s 32
f 51/51/51 46/46/46 45/45/45 
s 8
f 45/45/45 31/30/31 41/40/41 
s 1
f 32/31/32 31/30/31 45/45/45 44/44/44 
s 2
f 34/33/34 32/31/32 44/44/44 48/48/48 
s 8
f 41/40/41 31/30/31 30/29/30 52/54/52 
s 1
f 54/28/54 55/31/55 56/30/56 57/29/57 
s 2
f 33/32/33 34/33/34 55/31/55 54/28/54 
s 1
f 35/34/35 38/37/38 58/36/58 59/35/59 
f 39/38/39 42/41/42 60/40/60 61/39/61 
s 4
f 43/42/43 33/43/33 54/28/54 57/29/57 
s 1
f 62/44/62 63/47/63 64/46/64 65/45/65 
s 2
f 48/48/48 49/49/49 63/47/63 62/44/62 
f 50/50/50 39/52/39 61/39/61 66/51/66 
s 4
f 65/45/65 66/51/66 61/39/61 60/40/60 
s 8
f 38/37/38 50/53/50 66/51/66 58/36/58 
s 2
f 42/41/42 53/55/53 67/54/67 60/40/60 
s 16
f 58/36/58 66/51/66 64/46/64 
s 4
f 53/56/53 43/42/43 57/29/57 67/54/67 
s 16
f 63/47/63 59/35/59 58/36/58 64/46/64 
s 2
f 49/49/49 35/57/35 59/35/59 63/47/63 
s 32
f 66/51/66 65/45/65 64/46/64 
s 8
f 65/45/65 60/40/60 56/30/56 
s 1
f 55/31/55 62/44/62 65/45/65 56/30/56 
s 2
f 34/33/34 48/48/48 62/44/62 55/31/55 
s 8
f 60/40/60 67/54/67 57/29/57 56/30/56 
s 1
f 68/58/68 69/59/69 70/60/70 71/61/71 
s 2
f 72/62/72 73/63/73 69/59/69 68/58/68 
s 4
f 74/64/74 75/65/75 76/66/76 77/67/77 
s 2
f 75/68/75 78/69/78 70/60/70 76/66/76 
s 4
f 79/70/79 72/71/72 68/58/68 71/61/71 
s 1
f 69/59/69 77/67/77 76/66/76 70/60/70 
s 2
f 73/63/73 74/72/74 77/67/77 69/59/69 
f 78/69/78 79/73/79 71/61/71 70/60/70 
s 1
f 80/58/80 81/61/81 82/60/82 83/59/83 
s 2
f 72/62/72 80/58/80 83/59/83 73/63/73 
s 4
f 74/64/74 84/67/84 85/66/85 75/65/75 
s 2
f 75/68/75 85/66/85 82/60/82 78/69/78 
s 4
f 79/70/79 81/61/81 80/58/80 72/71/72 
s 1
f 83/59/83 82/60/82 85/66/85 84/67/84 
s 2
f 73/63/73 83/59/83 84/67/84 74/72/74 
f 78/69/78 82/60/82 81/61/81 79/73/79 
s 1
f 86/74/86 87/75/87 88/76/88 89/77/89 
s 2
f 90/78/90 91/79/91 87/75/87 86/74/86 
f 92/80/92 93/81/93 94/82/94 95/83/95 
s 4
f 93/81/93 96/84/96 88/76/88 94/82/94 
s 8
f 97/85/97 90/78/90 86/74/86 89/77/89 
f 87/75/87 95/83/95 94/82/94 88/76/88 
s 4
f 91/79/91 92/80/92 95/83/95 87/75/87 
f 96/84/96 97/85/97 89/77/89 88/76/88 
s 1
f 98/74/98 99/77/99 100/76/100 101/75/101 
s 2
f 90/78/90 98/74/98 101/75/101 91/79/91 
f 92/80/92 102/83/102 103/82/103 93/81/93 
s 4
f 93/81/93 103/82/103 100/76/100 96/84/96 
s 8
f 97/85/97 99/77/99 98/74/98 90/78/90 
f 101/75/101 100/76/100 103/82/103 102/83/102 
s 4
f 91/79/91 101/75/101 102/83/102 92/80/92 
f 96/84/96 100/76/100 99/77/99 97/85/97 
s 1
f 104/86/104 105/87/105 106/88/106 
s 2
f 104/86/104 107/89/107 105/87/105 
s 4
f 104/86/104 108/90/108 107/89/107 
s 8
f 104/86/104 106/88/106 108/90/108 
s 1
f 109/86/109 106/88/106 105/87/105 
s 2
f 109/86/109 105/87/105 107/89/107 
s 4
f 109/86/109 107/89/107 108/90/108 
s 8
f 109/86/109 108/90/108 106/88/106 
s 1
f 110/91/110 111/92/111 112/93/112 113/94/113 
s 2
f 114/95/114 110/91/110 115/95/115 
s 1
f 116/96/116 117/96/117 118/97/118 119/98/119 
s 2
f 119/98/119 118/97/118 120/99/120 121/100/121 
s 4
f 122/101/122 112/93/112 111/92/111 123/102/123 
s 1
f 124/103/124 125/104/125 126/105/126 
s 4
f 123/102/123 111/92/111 110/91/110 
s 1
f 127/106/127 113/94/113 112/93/112 
s 4
f 121/100/121 120/99/120 128/107/128 129/108/129 
s 8
f 110/91/110 113/94/113 128/107/128 
s 16
f 110/91/110 128/107/128 115/95/115 
s 4
f 128/107/128 113/94/113 127/106/127 129/108/129 
s 2
f 127/106/127 112/93/112 122/101/122 
s 16
f 115/109/115 118/110/118 130/111/130 131/112/131 
s 2
f 132/113/132 133/113/133 117/96/117 116/96/116 
s 1
f 134/114/134 135/115/135 136/116/136 137/117/137 
s 4
f 132/113/132 137/117/137 136/116/136 133/113/133 
s 16
f 133/113/133 136/116/136 135/115/135 131/118/131 
s 2
f 131/118/131 135/115/135 134/114/134 138/118/138 
s 16
f 133/113/133 130/119/130 118/97/118 117/96/117 
f 115/95/115 128/107/128 120/99/120 118/97/118 
f 131/112/131 130/111/130 133/120/133 
s off
f 138/121/138 126/105/126 131/112/131 
f 131/112/131 126/105/126 125/104/125 115/109/115 
f 115/109/115 125/104/125 124/103/124 114/122/114 
s 1
f 139/123/139 140/124/140 141/125/141 
s 2
f 139/123/139 142/126/142 140/124/140 
f 139/123/139 143/127/143 142/126/142 
s 4
f 139/123/139 141/128/141 143/127/143 
s 1
f 110/91/110 144/94/144 145/93/145 146/92/146 
s 2
f 114/95/114 147/95/147 110/91/110 
s 1
f 116/96/116 119/98/119 148/97/148 149/96/149 
s 2
f 119/98/119 121/100/121 150/99/150 148/97/148 
s 4
f 122/101/122 123/102/123 146/92/146 145/93/145 
s 1
f 124/103/124 126/105/126 151/104/151 
s 4
f 123/102/123 110/91/110 146/92/146 
s 1
f 127/106/127 145/93/145 144/94/144 
s 4
f 121/100/121 129/108/129 152/107/152 150/99/150 
s 8
f 110/91/110 152/107/152 144/94/144 
s 16
f 110/91/110 147/95/147 152/107/152 
s 4
f 152/107/152 129/108/129 127/106/127 144/94/144 
s 2
f 127/106/127 122/101/122 145/93/145 
s 16
f 147/109/147 153/112/153 154/111/154 148/110/148 
s 2
f 132/113/132 116/96/116 149/96/149 155/113/155 
s 1
f 134/114/134 137/117/137 156/116/156 157/115/157 
s 4
f 132/113/132 155/113/155 156/116/156 137/117/137 
s 16
f 155/113/155 153/118/153 157/115/157 156/116/156 
s 2
f 153/118/153 138/118/138 134/114/134 157/115/157 
s 16
f 155/113/155 149/96/149 148/97/148 154/119/154 
f 147/95/147 148/97/148 150/99/150 152/107/152 
f 153/112/153 155/120/155 154/111/154 
s off
f 138/121/138 153/112/153 126/105/126 
f 153/112/153 147/109/147 151/104/151 126/105/126 
f 147/109/147 114/122/114 124/103/124 151/104/151 
s 1
f 158/123/158 141/125/141 140/124/140 
s 2
f 158/123/158 140/124/140 142/126/142 
f 158/123/158 142/126/142 143/127/143 
s 4
f 158/123/158 143/127/143 141/128/141 
s 1
f 159/129/159 160/130/160 161/131/161 162/132/162 
f 160/130/160 163/133/163 164/134/164 161/131/161 
f 163/133/163 165/135/165 164/134/164 
s 2147483648
f 166/136/166 167/137/167 160/130/160 159/129/159 
f 167/137/167 168/138/168 163/133/163 160/130/160 
f 168/138/168 169/139/169 170/140/170 163/133/163 
s 4
f 171/141/171 172/142/172 173/143/173 174/144/174 
s 8
f 172/142/172 175/145/175 176/146/176 173/143/173 
s 4
f 175/145/175 177/147/177 178/148/178 176/146/176 
s 2
f 179/149/179 180/150/180 164/134/164 165/135/165 
f 180/150/180 181/151/181 161/131/161 164/134/164 
f 182/152/182 183/153/183 162/132/162 
s 1
f 184/154/184 185/155/185 186/156/186 
s 2147483648
f 169/139/169 171/141/171 174/144/174 170/140/170 
s 1
f 170/140/170 174/144/174 187/157/187 
f 187/157/187 174/144/174 173/143/173 
f 163/133/163 170/140/170 187/157/187 165/135/165 
f 187/157/187 173/143/173 176/146/176 178/148/178 
s 4
f 177/147/177 179/149/179 165/135/165 178/148/178 
s 1
f 178/148/178 165/135/165 187/157/187 
s 2
f 162/132/162 161/131/161 181/151/181 182/152/182 
s 4
f 188/158/188 189/159/189 190/160/190 191/161/191 
f 189/159/189 192/162/192 193/163/193 190/160/190 
f 194/164/194 188/158/188 191/161/191 195/165/195 
s 2
f 196/166/196 197/167/197 185/155/185 198/168/198 
s 1
f 193/169/193 199/170/199 197/167/197 196/166/196 
s 2
f 198/168/198 185/155/185 184/154/184 200/171/200 
s 4
f 159/172/159 162/173/162 189/159/189 188/158/188 
f 162/173/162 183/174/183 192/162/192 189/159/189 
f 166/175/166 159/172/159 188/158/188 194/164/194 
f 196/176/196 198/177/198 191/161/191 190/160/190 
f 198/177/198 200/178/200 195/165/195 191/161/191 
f 193/163/193 196/176/196 190/160/190 
f 185/155/185 197/167/197 199/170/199 186/156/186 
s 1
f 201/129/201 202/132/202 203/131/203 204/130/204 
f 204/130/204 203/131/203 205/134/205 206/133/206 
f 206/133/206 205/134/205 207/135/207 
s 2147483648
f 166/136/166 201/129/201 204/130/204 167/137/167 
f 167/137/167 204/130/204 206/133/206 168/138/168 
f 168/138/168 206/133/206 208/140/208 169/139/169 
s 4
f 171/141/171 209/144/209 210/143/210 172/142/172 
s 8
f 172/142/172 210/143/210 211/146/211 175/145/175 
s 4
f 175/145/175 211/146/211 212/148/212 177/147/177 
s 2
f 179/149/179 207/135/207 205/134/205 180/150/180 
f 180/150/180 205/134/205 203/131/203 181/151/181 
f 182/152/182 202/132/202 183/153/183 
s 1
f 184/154/184 186/156/186 213/155/213 
s 2147483648
f 169/139/169 208/140/208 209/144/209 171/141/171 
s 1
f 208/140/208 214/157/214 209/144/209 
f 214/157/214 210/143/210 209/144/209 
f 206/133/206 207/135/207 214/157/214 208/140/208 
f 214/157/214 212/148/212 211/146/211 210/143/210 
s 4
f 177/147/177 212/148/212 207/135/207 179/149/179 
s 1
f 212/148/212 214/157/214 207/135/207 
s 2
f 202/132/202 182/152/182 181/151/181 203/131/203 
s 4
f 215/158/215 216/161/216 217/160/217 218/159/218 
f 218/159/218 217/160/217 193/163/193 192/162/192 
f 194/164/194 195/165/195 216/161/216 215/158/215 
s 2
f 219/166/219 220/168/220 213/155/213 221/167/221 
s 1
f 193/169/193 219/166/219 221/167/221 199/170/199 
s 2
f 220/168/220 200/171/200 184/154/184 213/155/213 
s 4
f 201/172/201 215/158/215 218/159/218 202/173/202 
f 202/173/202 218/159/218 192/162/192 183/174/183 
f 166/175/166 194/164/194 215/158/215 201/172/201 
f 219/176/219 217/160/217 216/161/216 220/177/220 
f 220/177/220 216/161/216 195/165/195 200/178/200 
f 193/163/193 217/160/217 219/176/219 
f 213/155/213 186/156/186 199/170/199 221/167/221 
f 222/179/222 223/180/223 224/181/224 225/182/225 
f 225/182/225 224/181/224 226/183/226 227/184/227 
f 227/184/227 226/183/226 228/185/228 229/186/229 
s 8
f 230/187/230 231/188/231 223/180/223 222/179/222 
s 16
f 231/188/231 232/189/232 224/181/224 223/180/223 
f 232/189/232 233/190/233 226/183/226 224/181/224 
f 233/190/233 234/191/234 228/185/228 226/183/226 
f 235/192/235 236/193/236 237/194/237 238/195/238 
s 32
f 239/196/239 240/197/240 241/198/241 
s 64
f 242/199/242 243/200/243 244/201/244 245/202/245 
f 246/203/246 247/204/247 229/186/229 248/205/248 
f 249/206/249 250/207/250 225/182/225 227/184/227 
f 250/207/250 230/187/230 222/179/222 225/182/225 
s 4
f 237/194/237 251/208/251 252/209/252 
s 16
f 236/193/236 239/196/239 251/208/251 237/194/237 
s 64
f 243/200/243 246/203/246 248/205/248 244/201/244 
s 32
f 253/210/253 242/199/242 245/202/245 254/211/254 
s 4
f 254/211/254 245/202/245 244/201/244 
f 252/209/252 255/212/255 254/211/254 256/213/256 
s 8
f 256/213/256 257/214/257 258/215/258 
s 4
f 259/216/259 244/201/244 248/205/248 260/217/260 
s 8
f 261/218/261 258/215/258 257/214/257 
s 4
f 238/195/238 237/194/237 258/215/258 261/218/261 
f 261/218/261 260/217/260 248/205/248 238/195/238 
f 254/211/254 244/201/244 259/216/259 256/213/256 
f 256/213/256 258/215/258 237/194/237 252/209/252 
s 8
f 256/213/256 259/216/259 257/214/257 
f 257/214/257 259/216/259 260/217/260 
f 257/214/257 260/217/260 261/218/261 
s 4
f 228/185/228 238/195/238 248/205/248 229/186/229 
s 16
f 234/191/234 235/192/235 238/195/238 228/185/228 
s 64
f 247/204/247 249/206/249 227/184/227 229/186/229 
s 32
f 253/210/253 254/211/254 255/212/255 262/219/262 
f 262/219/262 255/212/255 252/209/252 241/198/241 
f 241/198/241 252/209/252 251/208/251 239/196/239 
s off
f 253/210/253 262/219/262 263/220/263 264/221/264 
f 262/219/262 241/198/241 265/222/265 263/220/263 
f 241/198/241 240/197/240 266/223/266 265/222/265 
f 267/224/267 268/225/268 269/226/269 270/227/270 
f 271/228/271 272/229/272 268/225/268 267/224/267 
f 273/230/273 274/231/274 272/229/272 271/228/271 
f 263/220/263 267/224/267 270/227/270 264/221/264 
f 265/222/265 271/228/271 267/224/267 263/220/263 
f 266/223/266 273/230/273 271/228/271 265/222/265 
s 4
f 275/179/275 276/182/276 277/181/277 278/180/278 
f 276/182/276 279/184/279 280/183/280 277/181/277 
f 279/184/279 281/186/281 282/185/282 280/183/280 
s 8
f 230/187/230 275/179/275 278/180/278 231/188/231 
s 16
f 231/188/231 278/180/278 277/181/277 232/189/232 
f 232/189/232 277/181/277 280/183/280 233/190/233 
f 233/190/233 280/183/280 282/185/282 234/191/234 
f 235/192/235 283/195/283 284/194/284 236/193/236 
s 32
f 239/196/239 285/198/285 240/197/240 
s 64
f 242/199/242 286/202/286 287/201/287 243/200/243 
f 246/203/246 288/205/288 281/186/281 247/204/247 
f 249/206/249 279/184/279 276/182/276 250/207/250 
f 250/207/250 276/182/276 275/179/275 230/187/230 
s 4
f 284/194/284 289/209/289 290/208/290 
s 16
f 236/193/236 284/194/284 290/208/290 239/196/239 
s 64
f 243/200/243 287/201/287 288/205/288 246/203/246 
s 32
f 253/210/253 291/211/291 286/202/286 242/199/242 
s 4
f 291/211/291 287/201/287 286/202/286 
f 289/209/289 292/213/292 291/211/291 293/212/293 
s 8
f 292/213/292 294/215/294 295/214/295 
s 4
f 296/216/296 297/217/297 288/205/288 287/201/287 
s 8
f 298/218/298 295/214/295 294/215/294 
s 4
f 283/195/283 298/218/298 294/215/294 284/194/284 
f 298/218/298 283/195/283 288/205/288 297/217/297 
f 291/211/291 292/213/292 296/216/296 287/201/287 
f 292/213/292 289/209/289 284/194/284 294/215/294 
s 8
f 292/213/292 295/214/295 296/216/296 
f 295/214/295 297/217/297 296/216/296 
f 295/214/295 298/218/298 297/217/297 
s 4
f 282/185/282 281/186/281 288/205/288 283/195/283 
s 16
f 234/191/234 282/185/282 283/195/283 235/192/235 
s 64
f 247/204/247 281/186/281 279/184/279 249/206/249 
s 32
f 253/210/253 299/219/299 293/212/293 291/211/291 
f 299/219/299 285/198/285 289/209/289 293/212/293 
f 285/198/285 239/196/239 290/208/290 289/209/289 
s off
f 253/210/253 264/221/264 300/220/300 299/219/299 
f 299/219/299 300/220/300 301/222/301 285/198/285 
f 285/198/285 301/222/301 266/223/266 240/197/240 
f 302/224/302 270/227/270 269/226/269 303/225/303 
f 304/228/304 302/224/302 303/225/303 305/229/305 
f 273/230/273 304/228/304 305/229/305 274/231/274 
f 300/220/300 264/221/264 270/227/270 302/224/302 
f 301/222/301 300/220/300 302/224/302 304/228/304 
f 266/223/266 301/222/301 304/228/304 273/230/273 
s 2
f 306/232/306 307/233/307 308/234/308 309/235/309 
f 309/235/309 308/234/308 310/236/310 311/237/311 
s off
f 311/237/311 310/238/310 312/239/312 313/240/313 
f 306/232/306 309/235/309 314/241/314 315/242/315 
f 308/234/308 307/233/307 316/243/316 317/244/317 
f 309/235/309 311/237/311 313/240/313 314/241/314 
f 310/236/310 308/234/308 317/244/317 312/245/312 
s 2
f 306/232/306 318/235/318 319/234/319 307/233/307 
f 318/235/318 320/237/320 321/236/321 319/234/319 
s off
f 320/237/320 322/240/322 323/239/323 321/238/321 
f 306/232/306 315/242/315 324/241/324 318/235/318 
f 319/234/319 325/244/325 316/243/316 307/233/307 
f 318/235/318 324/241/324 322/240/322 320/237/320 
f 321/236/321 323/245/323 325/244/325 319/234/319 
s 2
f 326/246/326 327/247/327 328/248/328 329/249/329 
f 327/247/327 330/250/330 331/251/331 328/248/328 
s off
f 330/250/330 332/252/332 333/253/333 331/254/331 
f 326/246/326 334/255/334 335/256/335 327/247/327 
f 328/248/328 336/257/336 337/258/337 329/249/329 
f 327/247/327 335/256/335 332/252/332 330/250/330 
f 331/251/331 333/259/333 336/257/336 328/248/328 
s 2
f 326/246/326 329/249/329 338/248/338 339/247/339 
f 339/247/339 338/248/338 340/251/340 341/250/341 
s off
f 341/250/341 340/254/340 342/253/342 343/252/343 
f 326/246/326 339/247/339 344/256/344 334/255/334 
f 338/248/338 329/249/329 337/258/337 345/257/345 
f 339/247/339 341/250/341 343/252/343 344/256/344 
f 340/251/340 338/248/338 345/257/345 342/259/342 
s 1
f 346/260/346 347/261/347 348/262/348 349/263/349 
s 8
f 350/264/350 347/261/347 346/260/346 
f 350/264/350 351/265/351 347/261/347 
s 2
f 347/261/347 351/265/351 352/266/352 348/262/348 
s 1
f 348/262/348 353/267/353 349/263/349 
s 2
f 352/266/352 353/267/353 348/262/348 
s 1
f 346/260/346 349/263/349 354/262/354 355/261/355 
s 8
f 350/264/350 346/260/346 355/261/355 
f 350/264/350 355/261/355 351/265/351 
s 2
f 355/261/355 354/262/354 352/266/352 351/265/351 
s 1
f 354/262/354 349/263/349 353/267/353 
s 2
f 352/266/352 354/262/354 353/267/353 
s 128
f 356/268/356 357/269/357 358/270/358 
f 357/269/357 359/271/359 360/272/360 361/273/361 
s 1
f 362/274/362 363/275/363 364/276/364 365/277/365 
f 366/278/366 367/279/367 363/275/363 362/274/362 
s 2
f 368/280/368 362/274/362 365/277/365 369/281/369 
f 370/282/370 366/278/366 362/274/362 368/280/368 
f 371/283/371 372/284/372 373/285/373 374/286/374 
s 4
f 375/287/375 376/288/376 372/284/372 371/283/371 
s 8
f 377/289/377 371/283/371 374/286/374 378/290/378 
f 379/291/379 375/287/375 371/283/371 377/289/377 
s 1
f 380/292/380 377/289/377 378/290/378 381/293/381 
f 382/294/382 379/291/379 377/289/377 380/292/380 
s 8
f 383/295/383 380/292/380 381/293/381 384/296/384 
f 385/297/385 382/294/382 380/292/380 383/295/383 
f 372/284/372 368/280/368 369/281/369 373/285/373 
f 376/288/376 370/282/370 368/280/368 372/284/372 
s 4
f 361/273/361 383/295/383 384/296/384 386/298/386 
f 360/272/360 385/297/385 383/295/383 361/273/361 
s 128
f 357/269/357 361/273/361 386/298/386 358/270/358 
s off
f 357/269/357 356/268/356 387/299/387 
f 359/271/359 357/269/357 387/299/387 
f 364/276/364 363/275/363 388/300/388 
f 363/275/363 367/279/367 388/300/388 
s 128
f 389/268/389 390/270/390 391/269/391 
f 391/269/391 392/273/392 360/272/360 359/271/359 
s 1
f 393/274/393 394/277/394 395/276/395 396/275/396 
f 366/278/366 393/274/393 396/275/396 367/279/367 
s 2
f 397/280/397 398/281/398 394/277/394 393/274/393 
f 370/282/370 397/280/397 393/274/393 366/278/366 
f 399/283/399 400/286/400 401/285/401 402/284/402 
s 4
f 375/287/375 399/283/399 402/284/402 376/288/376 
s 8
f 403/289/403 404/290/404 400/286/400 399/283/399 
f 379/291/379 403/289/403 399/283/399 375/287/375 
s 1
f 405/292/405 406/293/406 404/290/404 403/289/403 
f 382/294/382 405/292/405 403/289/403 379/291/379 
s 8
f 407/295/407 408/296/408 406/293/406 405/292/405 
f 385/297/385 407/295/407 405/292/405 382/294/382 
f 402/284/402 401/285/401 398/281/398 397/280/397 
f 376/288/376 402/284/402 397/280/397 370/282/370 
s 4
f 392/273/392 409/298/409 408/296/408 407/295/407 
f 360/272/360 392/273/392 407/295/407 385/297/385 
s 128
f 391/269/391 390/270/390 409/298/409 392/273/392 
s off
f 391/269/391 387/299/387 389/268/389 
f 359/271/359 387/299/387 391/269/391 
f 395/276/395 388/300/388 396/275/396 
f 396/275/396 388/300/388 367/279/367 
s 128
f 356/268/356 358/270/358 410/269/410 
f 410/269/410 411/273/411 412/272/412 413/271/413 
s 1
f 414/274/414 365/277/365 364/276/364 415/275/415 
f 416/278/416 414/274/414 415/275/415 417/279/417 
s 2
f 418/280/418 369/281/369 365/277/365 414/274/414 
f 419/282/419 418/280/418 414/274/414 416/278/416 
f 420/283/420 374/286/374 373/285/373 421/284/421 
s 4
f 422/287/422 420/283/420 421/284/421 423/288/423 
s 8
f 424/289/424 378/290/378 374/286/374 420/283/420 
f 425/291/425 424/289/424 420/283/420 422/287/422 
s 1
f 426/292/426 381/293/381 378/290/378 424/289/424 
f 427/294/427 426/292/426 424/289/424 425/291/425 
s 8
f 428/295/428 384/296/384 381/293/381 426/292/426 
f 429/297/429 428/295/428 426/292/426 427/294/427 
f 421/284/421 373/285/373 369/281/369 418/280/418 
f 423/288/423 421/284/421 418/280/418 419/282/419 
s 4
f 411/273/411 386/298/386 384/296/384 428/295/428 
f 412/272/412 411/273/411 428/295/428 429/297/429 
s 128
f 410/269/410 358/270/358 386/298/386 411/273/411 
s off
f 410/269/410 387/299/387 356/268/356 
f 413/271/413 387/299/387 410/269/410 
f 364/276/364 388/300/388 415/275/415 
f 415/275/415 388/300/388 417/279/417 
s 128
f 389/268/389 430/269/430 390/270/390 
f 430/269/430 413/271/413 412/272/412 431/273/431 
s 1
f 432/274/432 433/275/433 395/276/395 394/277/394 
f 416/278/416 417/279/417 433/275/433 432/274/432 
s 2
f 434/280/434 432/274/432 394/277/394 398/281/398 
f 419/282/419 416/278/416 432/274/432 434/280/434 
f 435/283/435 436/284/436 401/285/401 400/286/400 
s 4
f 422/287/422 423/288/423 436/284/436 435/283/435 
s 8
f 437/289/437 435/283/435 400/286/400 404/290/404 
f 425/291/425 422/287/422 435/283/435 437/289/437 
s 1
f 438/292/438 437/289/437 404/290/404 406/293/406 
f 427/294/427 425/291/425 437/289/437 438/292/438 
s 8
f 439/295/439 438/292/438 406/293/406 408/296/408 
f 429/297/429 427/294/427 438/292/438 439/295/439 
f 436/284/436 434/280/434 398/281/398 401/285/401 
f 423/288/423 419/282/419 434/280/434 436/284/436 
s 4
f 431/273/431 439/295/439 408/296/408 409/298/409 
f 412/272/412 429/297/429 439/295/439 431/273/431 
s 128
f 430/269/430 431/273/431 409/298/409 390/270/390 
s off
f 430/269/430 389/268/389 387/299/387 
f 413/271/413 430/269/430 387/299/387 
f 395/276/395 433/275/433 388/300/388 
f 433/275/433 417/279/417 388/300/388 
s 8
f 440/301/440 441/302/441 442/303/442 443/304/443 
f 441/302/441 444/305/444 445/306/445 442/303/442 
f 444/305/444 446/307/446 447/308/447 445/306/445 
f 446/307/446 448/309/448 449/310/449 447/308/447 
s 1
f 450/311/450 451/312/451 452/313/452 453/314/453 
f 454/315/454 455/316/455 451/312/451 450/311/450 
f 456/317/456 457/318/457 455/316/455 454/315/454 
f 458/319/458 459/320/459 457/318/457 456/317/456 
s 2
f 460/321/460 450/311/450 453/314/453 461/322/461 
f 462/323/462 454/315/454 450/311/450 460/321/460 
f 463/324/463 456/317/456 454/315/454 462/323/462 
f 464/325/464 458/319/458 456/317/456 463/324/463 
s 4
f 442/303/442 460/321/460 461/322/461 443/304/443 
f 445/306/445 462/323/462 460/321/460 442/303/442 
f 447/308/447 463/324/463 462/323/462 445/306/445 
f 449/310/449 464/325/464 463/324/463 447/308/447 
s 8
f 440/301/440 443/304/443 465/303/465 466/302/466 
f 466/302/466 465/303/465 467/306/467 468/305/468 
f 468/305/468 467/306/467 469/308/469 470/307/470 
f 470/307/470 469/308/469 449/310/449 448/309/448 
s 1
f 471/311/471 453/314/453 452/313/452 472/312/472 
f 473/315/473 471/311/471 472/312/472 474/316/474 
f 475/317/475 473/315/473 474/316/474 476/318/476 
f 458/319/458 475/317/475 476/318/476 459/320/459 
s 2
f 477/321/477 461/322/461 453/314/453 471/311/471 
f 478/323/478 477/321/477 471/311/471 473/315/473 
f 479/324/479 478/323/478 473/315/473 475/317/475 
f 464/325/464 479/324/479 475/317/475 458/319/458 
s 4
f 465/303/465 443/304/443 461/322/461 477/321/477 
f 467/306/467 465/303/465 477/321/477 478/323/478 
f 469/308/469 467/306/467 478/323/478 479/324/479 
f 449/310/449 469/308/469 479/324/479 464/325/464 
s 1
f 480/326/480 481/327/481 482/328/482 483/329/483 
f 481/327/481 484/330/484 485/331/485 482/328/482 
s 2
f 482/328/482 486/332/486 487/333/487 483/329/483 
f 485/331/485 488/334/488 486/332/486 482/328/482 
s 4
f 486/332/486 489/335/489 490/336/490 487/333/487 
f 488/334/488 491/337/491 489/335/489 486/332/486 
s 8
f 489/335/489 492/338/492 493/339/493 490/336/490 
f 491/337/491 494/340/494 492/338/492 489/335/489 
f 492/338/492 495/341/495 493/339/493 
f 494/340/494 495/341/495 492/338/492 
s 2147483648
f 484/330/484 481/327/481 496/342/496 
f 496/342/496 481/327/481 480/326/480 
s 1
f 480/326/480 483/329/483 497/328/497 498/327/498 
f 498/327/498 497/328/497 485/331/485 484/330/484 
s 2
f 497/328/497 483/329/483 487/333/487 499/332/499 
f 485/331/485 497/328/497 499/332/499 488/334/488 
s 4
f 499/332/499 487/333/487 490/336/490 500/335/500 
f 488/334/488 499/332/499 500/335/500 491/337/491 
s 8
f 500/335/500 490/336/490 493/339/493 501/338/501 
f 491/337/491 500/335/500 501/338/501 494/340/494 
f 501/338/501 493/339/493 495/341/495 
f 494/340/494 501/338/501 495/341/495 
s 2147483648
f 484/330/484 496/342/496 498/327/498 
f 496/342/496 480/326/480 498/327/498 
s 1
f 502/343/502 503/344/503 504/345/504 505/346/505 
s 2
f 502/343/502 505/346/505 506/347/506 
s 4
f 507/348/507 508/349/508 509/350/509 510/351/510 
s 8
f 503/344/503 502/343/502 506/347/506 511/352/511 
s 2
f 510/351/510 512/353/512 506/347/506 
s 4
f 509/350/509 513/354/513 512/353/512 510/351/510 
s 8
f 506/347/506 512/353/512 513/354/513 511/352/511 
s 1
f 504/345/504 508/349/508 507/348/507 505/346/505 
s 2
f 505/346/505 507/348/507 510/351/510 
f 505/346/505 510/351/510 506/347/506 
f 514/355/514 515/356/515 516/357/516 517/358/517 
s 4
f 518/359/518 519/360/519 520/361/520 521/362/521 
s 8
f 514/355/514 517/358/517 519/360/519 518/359/518 
s 16
f 517/358/517 516/357/516 520/361/520 519/360/519 
s 32
f 522/363/522 523/364/523 524/365/524 525/366/525 
s 64
f 523/364/523 515/356/515 521/362/521 524/365/524 
s 2
f 515/356/515 523/364/523 522/363/522 516/357/516 
s 4
f 520/361/520 525/366/525 524/365/524 521/362/521 
s 16
f 516/357/516 522/363/522 525/366/525 520/361/520 
s 64
f 515/356/515 514/355/514 518/359/518 521/362/521 
s 128
f 526/367/526 527/368/527 528/369/528 529/370/529 
s 64
f 530/371/530 531/372/531 527/368/527 526/367/526 
s off
f 532/373/532 533/374/533 534/375/534 535/376/535 
f 533/374/533 536/377/536 537/378/537 534/375/534 
f 538/379/538 539/380/539 540/381/540 541/382/541 
s 128
f 542/383/542 543/384/543 540/381/540 544/385/544 
s off
f 545/386/545 546/387/546 547/388/547 544/385/544 
s 128
f 548/389/548 549/390/549 547/388/547 529/370/529 
s off
f 550/391/550 530/371/530 526/367/526 529/370/529 
f 536/377/536 538/379/538 541/382/541 537/378/537 
s 128
f 551/392/551 535/376/535 534/375/534 537/378/537 
s 1
f 552/393/552 532/373/532 535/376/535 551/392/551 
s off
f 539/380/539 545/386/545 544/385/544 540/381/540 
s 128
f 543/384/543 553/394/553 540/381/540 
s 2
f 554/395/554 555/396/555 553/394/553 543/384/543 
s 128
f 556/397/556 551/392/551 537/378/537 
s 1
f 552/393/552 551/392/551 557/398/557 558/399/558 
s 128
f 551/392/551 556/397/556 557/398/557 
s 2
f 556/397/556 559/400/559 558/399/558 557/398/557 
f 560/401/560 559/400/559 556/397/556 561/402/561 
s 128
f 561/402/561 556/397/556 537/378/537 541/382/541 
s 2
f 555/396/555 560/401/560 561/402/561 553/394/553 
s 128
f 553/394/553 561/402/561 541/382/541 540/381/540 
s 2
f 554/395/554 543/384/543 562/403/562 563/404/563 
s 128
f 543/384/543 542/383/542 562/403/562 
s 8
f 564/405/564 565/406/565 566/407/566 
s 4
f 567/408/567 566/407/566 568/409/568 569/410/569 
s 2
f 562/403/562 567/408/567 569/410/569 563/404/563 
s 128
f 570/411/570 566/407/566 567/408/567 
s 8
f 571/412/571 572/413/572 542/383/542 549/390/549 
f 571/412/571 549/390/549 573/414/573 574/415/574 
s 128
f 549/390/549 548/389/548 575/416/575 573/414/573 
s 32
f 548/389/548 576/417/576 577/418/577 575/416/575 
s 16
f 578/419/578 579/420/579 580/421/580 581/422/581 
s 32
f 582/423/582 583/424/583 579/420/579 584/425/584 
s off
f 546/387/546 550/391/550 529/370/529 547/388/547 
s 128
f 549/390/549 542/383/542 544/385/544 547/388/547 
s 8
f 573/414/573 578/419/578 581/422/581 574/415/574 
s 128
f 584/425/584 579/420/579 578/419/578 
s 32
f 585/426/585 576/417/576 548/389/548 528/369/528 
f 586/427/586 585/426/585 528/369/528 587/428/587 
s 128
f 528/369/528 548/389/548 529/370/529 
s 4
f 566/407/566 565/406/565 568/409/568 
s 8
f 566/407/566 570/411/570 588/429/588 564/405/564 
s 32
f 583/424/583 589/430/589 579/420/579 
s 16
f 579/420/579 589/430/589 580/421/580 
s 64
f 531/372/531 586/427/586 587/428/587 527/368/527 
s 128
f 527/368/527 587/428/587 528/369/528 
f 578/419/578 573/414/573 575/416/575 584/425/584 
s 32
f 584/425/584 575/416/575 577/418/577 582/423/582 
s 128
f 567/408/567 562/403/562 542/383/542 570/411/570 
s 8
f 570/411/570 542/383/542 572/413/572 588/429/588 
s 1
f 590/343/590 591/346/591 504/345/504 503/344/503 
s 2
f 590/343/590 592/347/592 591/346/591 
s 4
f 593/348/593 594/351/594 509/350/509 508/349/508 
s 8
f 503/344/503 511/352/511 592/347/592 590/343/590 
s 2
f 594/351/594 592/347/592 595/353/595 
s 4
f 509/350/509 594/351/594 595/353/595 513/354/513 
s 8
f 592/347/592 511/352/511 513/354/513 595/353/595 
s 1
f 504/345/504 591/346/591 593/348/593 508/349/508 
s 2
f 591/346/591 594/351/594 593/348/593 
f 591/346/591 592/347/592 594/351/594 
f 596/355/596 597/358/597 598/357/598 599/356/599 
s 4
f 600/359/600 601/362/601 602/361/602 603/360/603 
s 8
f 596/355/596 600/359/600 603/360/603 597/358/597 
s 16
f 597/358/597 603/360/603 602/361/602 598/357/598 
s 32
f 604/363/604 605/366/605 606/365/606 607/364/607 
s 64
f 607/364/607 606/365/606 601/362/601 599/356/599 
s 2
f 599/356/599 598/357/598 604/363/604 607/364/607 
s 4
f 602/361/602 601/362/601 606/365/606 605/366/605 
s 16
f 598/357/598 602/361/602 605/366/605 604/363/604 
s 64
f 599/356/599 601/362/601 600/359/600 596/355/596 
s 128
f 608/367/608 609/370/609 610/369/610 611/368/611 
s 64
f 530/371/530 608/367/608 611/368/611 531/372/531 
s off
f 532/373/532 612/376/612 613/375/613 533/374/533 
f 533/374/533 613/375/613 614/378/614 536/377/536 
f 538/379/538 615/382/615 616/381/616 539/380/539 
s 128
f 617/383/617 618/385/618 616/381/616 619/384/619 
s off
f 545/386/545 618/385/618 620/388/620 546/387/546 
s 128
f 621/389/621 609/370/609 620/388/620 622/390/622 
s off
f 550/391/550 609/370/609 608/367/608 530/371/530 
f 536/377/536 614/378/614 615/382/615 538/379/538 
s 128
f 623/392/623 614/378/614 613/375/613 612/376/612 
s 1
f 552/393/552 623/392/623 612/376/612 532/373/532 
s off
f 539/380/539 616/381/616 618/385/618 545/386/545 
s 128
f 619/384/619 616/381/616 624/394/624 
s 2
f 554/395/554 619/384/619 624/394/624 555/396/555 
s 128
f 625/397/625 614/378/614 623/392/623 
s 1
f 552/393/552 558/399/558 626/398/626 623/392/623 
s 128
f 623/392/623 626/398/626 625/397/625 
s 2
f 625/397/625 626/398/626 558/399/558 559/400/559 
f 560/401/560 627/402/627 625/397/625 559/400/559 
s 128
f 627/402/627 615/382/615 614/378/614 625/397/625 
s 2
f 555/396/555 624/394/624 627/402/627 560/401/560 
s 128
f 624/394/624 616/381/616 615/382/615 627/402/627 
s 2
f 554/395/554 563/404/563 628/403/628 619/384/619 
s 128
f 619/384/619 628/403/628 617/383/617 
s 8
f 564/405/564 629/407/629 565/406/565 
s 4
f 630/408/630 569/410/569 568/409/568 629/407/629 
s 2
f 628/403/628 563/404/563 569/410/569 630/408/630 
s 128
f 631/411/631 630/408/630 629/407/629 
s 8
f 571/412/571 622/390/622 617/383/617 572/413/572 
f 571/412/571 574/415/574 632/414/632 622/390/622 
s 128
f 622/390/622 632/414/632 633/416/633 621/389/621 
s 32
f 621/389/621 633/416/633 577/418/577 576/417/576 
s 16
f 634/419/634 581/422/581 580/421/580 635/420/635 
s 32
f 582/423/582 636/425/636 635/420/635 583/424/583 
s off
f 546/387/546 620/388/620 609/370/609 550/391/550 
s 128
f 622/390/622 620/388/620 618/385/618 617/383/617 
s 8
f 632/414/632 574/415/574 581/422/581 634/419/634 
s 128
f 636/425/636 634/419/634 635/420/635 
s 32
f 585/426/585 610/369/610 621/389/621 576/417/576 
f 586/427/586 637/428/637 610/369/610 585/426/585 
s 128
f 610/369/610 609/370/609 621/389/621 
s 4
f 629/407/629 568/409/568 565/406/565 
s 8
f 629/407/629 564/405/564 588/429/588 631/411/631 
s 32
f 583/424/583 635/420/635 589/430/589 
s 16
f 635/420/635 580/421/580 589/430/589 
s 64
f 531/372/531 611/368/611 637/428/637 586/427/586 
s 128
f 611/368/611 610/369/610 637/428/637 
f 634/419/634 636/425/636 633/416/633 632/414/632 
s 32
f 636/425/636 582/423/582 577/418/577 633/416/633 
s 128
f 630/408/630 631/411/631 617/383/617 628/403/628 
s 8
f 631/411/631 588/429/588 572/413/572 617/383/617 
s 2
f 638/431/638 639/432/639 640/433/640 641/434/641 
s 1
f 642/435/642 643/436/643 644/437/644 
s 64
f 638/431/638 645/438/645 639/432/639 
s 4
f 643/436/643 642/435/642 646/439/646 
s 2
f 646/439/646 642/435/642 644/437/644 
s 1
f 643/436/643 647/440/647 641/434/641 644/437/644 
s 2
f 640/433/640 646/439/646 644/437/644 641/434/641 
s 1
f 647/440/647 645/438/645 638/431/638 641/434/641 
s 2
f 648/441/648 649/442/649 650/443/650 651/444/651 
s 1
f 652/445/652 653/446/653 654/447/654 
s 64
f 648/441/648 655/448/655 649/442/649 
s 4
f 653/446/653 652/445/652 656/449/656 
s 2
f 656/449/656 652/445/652 654/447/654 
s 1
f 653/446/653 657/450/657 651/444/651 654/447/654 
s 2
f 650/443/650 656/449/656 654/447/654 651/444/651 
s 1
f 657/450/657 655/448/655 648/441/648 651/444/651 
s 2
f 658/431/658 659/434/659 660/433/660 661/432/661 
s 1
f 662/435/662 663/437/663 664/436/664 
s 64
f 658/431/658 661/432/661 665/438/665 
s 4
f 664/436/664 666/439/666 662/435/662 
s 2
f 666/439/666 663/437/663 662/435/662 
s 1
f 664/436/664 663/437/663 659/434/659 667/440/667 
s 2
f 660/433/660 659/434/659 663/437/663 666/439/666 
s 1
f 667/440/667 659/434/659 658/431/658 665/438/665 
s 2
f 668/441/668 669/444/669 670/443/670 671/442/671 
s 1
f 672/445/672 673/447/673 674/446/674 
s 64
f 668/441/668 671/442/671 675/448/675 
s 4
f 674/446/674 676/449/676 672/445/672 
s 2
f 676/449/676 673/447/673 672/445/672 
s 1
f 674/446/674 673/447/673 669/444/669 677/450/677 
s 2
f 670/443/670 669/444/669 673/447/673 676/449/676 
s 1
f 677/450/677 669/444/669 668/441/668 675/448/675 
s off
f 649/442/649 655/448/655 678/451/678 
f 657/450/657 653/446/653 678/451/678 
f 650/443/650 649/442/649 678/451/678 
f 653/446/653 656/449/656 678/451/678 
f 655/448/655 657/450/657 678/451/678 
f 656/449/656 650/443/650 678/451/678 
s 2
f 679/452/679 680/453/680 681/454/681 682/455/682 
s 1
f 683/456/683 684/457/684 685/458/685 
s 64
f 679/452/679 686/459/686 680/453/680 
s 4
f 684/460/684 683/456/683 687/461/687 
s 2
f 687/461/687 683/456/683 685/458/685 
s 1
f 684/457/684 688/462/688 682/455/682 685/458/685 
s 2
f 681/454/681 687/461/687 685/458/685 682/455/682 
s 1
f 688/462/688 686/459/686 679/452/679 682/455/682 
s off
f 680/453/680 686/463/686 689/464/678 
f 688/465/688 684/460/684 689/464/678 
f 681/454/681 680/453/680 689/464/678 
f 684/460/684 687/461/687 689/464/678 
f 686/463/686 688/465/688 689/464/678 
f 687/461/687 681/454/681 689/464/678 
s 2
f 690/452/689 691/455/690 692/454/691 693/453/692 
s 1
f 694/456/693 695/458/694 696/457/695 
s 64
f 690/452/689 693/453/692 671/459/696 
s 4
f 696/460/695 697/461/697 694/456/693 
s 2
f 697/461/697 695/458/694 694/456/693 
s 1
f 696/457/695 695/458/694 691/455/690 698/462/698 
s 2
f 692/454/691 691/455/690 695/458/694 697/461/697 
s 1
f 698/462/698 691/455/690 690/452/689 671/459/696 
s off
f 693/453/692 699/464/699 671/463/696 
f 698/465/698 699/464/699 696/460/695 
f 692/454/691 699/464/699 693/453/692 
f 696/460/695 699/464/699 697/461/697 
f 671/463/696 699/464/699 698/465/698 
f 697/461/697 699/464/699 692/454/691 
s 2
f 700/466/700 701/467/701 702/468/702 703/469/703 
s 8
f 700/466/700 703/469/703 704/470/704 
s 16
f 703/469/703 702/468/702 705/471/705 704/470/704 
s 32
f 706/472/706 707/473/707 708/474/708 
s 64
f 707/473/707 709/475/709 710/476/710 708/474/708 
s 2
f 711/477/711 709/475/709 712/478/712 713/479/713 
s 16
f 713/479/713 712/478/712 710/476/710 714/480/714 
s 64
f 711/477/711 701/467/701 705/471/705 714/480/714 
f 709/475/709 711/477/711 714/480/714 710/476/710 
s 2
f 709/475/709 707/473/707 706/472/706 712/478/712 
s 16
f 712/478/712 706/472/706 708/474/708 710/476/710 
s 2
f 701/467/701 711/477/711 713/479/713 702/468/702 
s 16
f 702/468/702 713/479/713 714/480/714 705/471/705 
s 64
f 701/467/701 700/466/700 704/470/704 705/471/705 
s 2
f 715/466/715 716/469/716 717/468/717 718/467/718 
s 8
f 715/466/715 719/470/719 716/469/716 
s 16
f 716/469/716 719/470/719 720/471/720 717/468/717 
s 32
f 721/472/721 722/474/722 723/473/723 
s 64
f 723/473/723 722/474/722 724/476/724 725/475/725 
s 2
f 726/477/726 727/479/727 728/478/728 725/475/725 
s 16
f 727/479/727 729/480/729 724/476/724 728/478/728 
s 64
f 726/477/726 729/480/729 720/471/720 718/467/718 
f 725/475/725 724/476/724 729/480/729 726/477/726 
s 2
f 725/475/725 728/478/728 721/472/721 723/473/723 
s 16
f 728/478/728 724/476/724 722/474/722 721/472/721 
s 2
f 718/467/718 717/468/717 727/479/727 726/477/726 
s 16
f 717/468/717 720/471/720 729/480/729 727/479/727 
s 64
f 718/467/718 720/471/720 719/470/719 715/466/715 
s 1
f 730/481/730 731/482/731 732/483/732 
f 730/481/730 733/484/733 731/482/731 
f 730/481/730 734/485/734 733/484/733 
f 730/481/730 735/486/735 734/485/734 
f 730/481/730 732/483/732 736/487/736 737/488/737 
f 732/483/732 731/482/731 738/489/738 736/487/736 
f 739/490/739 740/491/740 741/492/741 
f 733/484/733 734/485/734 742/493/742 743/494/743 
f 734/485/734 735/486/735 744/495/744 745/496/745 
f 735/486/735 730/481/730 746/497/746 744/495/744 
f 747/498/747 733/484/733 748/499/748 
f 733/484/733 743/494/743 749/500/749 748/499/748 
f 747/498/747 748/499/748 750/501/750 751/502/751 
f 748/499/748 749/500/749 752/503/752 750/501/750 
f 753/504/753 754/505/754 740/491/740 755/506/755 
f 751/502/751 750/501/750 756/507/756 
f 750/501/750 752/503/752 756/507/756 
f 757/508/757 733/484/733 747/498/747 
f 733/484/733 753/504/753 758/509/758 731/482/731 
f 757/508/757 754/505/754 733/484/733 
f 754/505/754 753/504/753 733/484/733 
f 741/492/741 740/491/740 754/505/754 757/508/757 
f 755/506/755 740/491/740 739/490/739 
f 731/482/731 758/509/758 759/510/759 
f 731/482/731 759/510/759 760/511/760 738/489/738 
f 760/511/760 759/510/759 761/512/761 762/513/762 
f 759/510/759 758/509/758 763/514/763 761/512/761 
f 762/513/762 761/512/761 764/515/764 765/516/765 
f 761/512/761 763/514/763 755/506/755 764/515/764 
f 765/516/765 764/515/764 739/490/739 
f 764/515/764 755/506/755 739/490/739 
f 734/485/734 766/517/766 742/493/742 
f 745/496/745 766/517/766 734/485/734 
f 742/493/742 766/517/766 767/518/767 768/519/768 
f 766/517/766 745/496/745 769/520/769 767/518/767 
f 770/521/770 771/522/771 772/523/772 
f 771/522/771 773/524/773 772/523/772 
f 774/525/774 775/526/775 771/522/771 770/521/770 
f 775/526/775 776/527/776 773/524/773 771/522/771 
f 768/519/768 767/518/767 775/526/775 774/525/774 
f 767/518/767 769/520/769 776/527/776 775/526/775 
f 730/481/730 737/488/737 777/528/777 
f 746/497/746 730/481/730 777/528/777 
f 778/481/778 779/483/779 780/482/780 
f 778/481/778 780/482/780 781/484/781 
f 778/481/778 781/484/781 782/485/782 
f 778/481/778 782/485/782 783/486/783 
f 778/481/778 737/488/737 736/487/736 779/483/779 
f 779/483/779 736/487/736 738/489/738 780/482/780 
f 739/490/739 741/492/741 784/491/784 
f 781/484/781 743/494/743 742/493/742 782/485/782 
f 782/485/782 745/496/745 744/495/744 783/486/783 
f 783/486/783 744/495/744 746/497/746 778/481/778 
f 747/498/747 785/499/785 781/484/781 
f 781/484/781 785/499/785 749/500/749 743/494/743 
f 747/498/747 751/502/751 786/501/786 785/499/785 
f 785/499/785 786/501/786 752/503/752 749/500/749 
f 753/504/753 755/506/787 784/491/784 787/505/788 
f 751/502/751 756/507/756 786/501/786 
f 786/501/786 756/507/756 752/503/752 
f 757/508/757 747/498/747 781/484/781 
f 781/484/781 780/482/780 758/509/758 753/504/753 
f 757/508/757 781/484/781 787/505/788 
f 787/505/788 781/484/781 753/504/753 
f 741/492/741 757/508/757 787/505/788 784/491/784 
f 755/506/787 739/490/739 784/491/784 
f 780/482/780 788/510/789 758/509/758 
f 780/482/780 738/489/738 760/511/760 788/510/789 
f 760/511/760 762/513/762 789/512/790 788/510/789 
f 788/510/789 789/512/790 763/514/763 758/509/758 
f 762/513/762 765/516/765 790/515/791 789/512/790 
f 789/512/790 790/515/791 755/506/787 763/514/763 
f 765/516/765 739/490/739 790/515/791 
f 790/515/791 739/490/739 755/506/787 
f 782/485/782 742/493/742 791/517/792 
f 745/496/745 782/485/782 791/517/792 
f 742/493/742 768/519/768 792/518/793 791/517/792 
f 791/517/792 792/518/793 769/520/769 745/496/745 
f 770/521/770 772/523/772 793/522/794 
f 793/522/794 772/523/772 773/524/773 
f 774/525/774 770/521/770 793/522/794 794/526/795 
f 794/526/795 793/522/794 773/524/773 776/527/776 
f 768/519/768 774/525/774 794/526/795 792/518/793 
f 792/518/793 794/526/795 776/527/776 769/520/769 
f 778/481/778 777/528/777 737/488/737 
f 746/497/746 777/528/777 778/481/778 
# 592 polygons - 246 triangles

